2020-10-22T15:39:20.762-0700 [DEBUG] [org.gradle.launcher.daemon.bootstrap.DaemonMain] Assuming the daemon was started with following jvm opts: [--add-opens, java.base/java.util=ALL-UNNAMED, --add-opens, java.base/java.lang=ALL-UNNAMED, --add-opens, java.base/java.lang.invoke=ALL-UNNAMED, --add-opens, java.prefs/java.util.prefs=ALL-UNNAMED, -Xms1g, -Xmx4g, -Dfile.encoding=windows-1252, -Duser.country=US, -Duser.language=en, -Duser.variant]
2020-10-22T15:39:20.886-0700 [DEBUG] [org.gradle.internal.nativeintegration.services.NativeServices] Native-platform posix files integration is not available. Continuing with fallback.
2020-10-22T15:39:20.943-0700 [INFO] [org.gradle.launcher.daemon.server.Daemon] start() called on daemon - DefaultDaemonContext[uid=2edb3378-7912-4905-b9df-c5c1888a63c2,javaHome=C:\Program Files\Java\jdk-11.0.8,daemonRegistryDir=J:\Scripts\base\PolicyCenter1010\gradle\cache\daemon,pid=10628,idleTimeout=120000,priority=NORMAL,daemonOpts=--add-opens,java.base/java.util=ALL-UNNAMED,--add-opens,java.base/java.lang=ALL-UNNAMED,--add-opens,java.base/java.lang.invoke=ALL-UNNAMED,--add-opens,java.prefs/java.util.prefs=ALL-UNNAMED,-Xms1g,-Xmx4g,-Dfile.encoding=windows-1252,-Duser.country=US,-Duser.language=en,-Duser.variant]
2020-10-22T15:39:21.080-0700 [DEBUG] [org.gradle.internal.remote.internal.inet.InetAddresses] Adding IP addresses for network interface Software Loopback Interface 1
2020-10-22T15:39:21.082-0700 [DEBUG] [org.gradle.internal.remote.internal.inet.InetAddresses] Is this a loopback interface? true
2020-10-22T15:39:21.082-0700 [DEBUG] [org.gradle.internal.remote.internal.inet.InetAddresses] Adding loopback address /127.0.0.1
2020-10-22T15:39:21.082-0700 [DEBUG] [org.gradle.internal.remote.internal.inet.InetAddresses] Adding loopback address /0:0:0:0:0:0:0:1
2020-10-22T15:39:21.084-0700 [DEBUG] [org.gradle.internal.remote.internal.inet.InetAddresses] Adding IP addresses for network interface Amazon Elastic Network Adapter
2020-10-22T15:39:21.086-0700 [DEBUG] [org.gradle.internal.remote.internal.inet.InetAddresses] Is this a loopback interface? false
2020-10-22T15:39:21.086-0700 [DEBUG] [org.gradle.internal.remote.internal.inet.InetAddresses] Adding remote address /10.200.2.217
2020-10-22T15:39:21.087-0700 [DEBUG] [org.gradle.internal.remote.internal.inet.InetAddresses] Adding remote address /fe80:0:0:0:5024:2843:cc17:7ed0%eth0
2020-10-22T15:39:21.087-0700 [DEBUG] [org.gradle.internal.remote.internal.inet.InetAddresses] Adding IP addresses for network interface Microsoft 6to4 Adapter
2020-10-22T15:39:21.088-0700 [DEBUG] [org.gradle.internal.remote.internal.inet.InetAddresses] Is this a loopback interface? false
2020-10-22T15:39:21.089-0700 [DEBUG] [org.gradle.internal.remote.internal.inet.InetAddresses] Adding IP addresses for network interface Microsoft IP-HTTPS Platform Adapter
2020-10-22T15:39:21.090-0700 [DEBUG] [org.gradle.internal.remote.internal.inet.InetAddresses] Is this a loopback interface? false
2020-10-22T15:39:21.091-0700 [DEBUG] [org.gradle.internal.remote.internal.inet.InetAddresses] Adding IP addresses for network interface AWS PV Network Device
2020-10-22T15:39:21.092-0700 [DEBUG] [org.gradle.internal.remote.internal.inet.InetAddresses] Is this a loopback interface? false
2020-10-22T15:39:21.092-0700 [DEBUG] [org.gradle.internal.remote.internal.inet.InetAddresses] Adding IP addresses for network interface Hyper-V Virtual Switch Extension Adapter
2020-10-22T15:39:21.094-0700 [DEBUG] [org.gradle.internal.remote.internal.inet.InetAddresses] Is this a loopback interface? false
2020-10-22T15:39:21.094-0700 [DEBUG] [org.gradle.internal.remote.internal.inet.InetAddresses] Adding IP addresses for network interface Microsoft Kernel Debug Network Adapter
2020-10-22T15:39:21.096-0700 [DEBUG] [org.gradle.internal.remote.internal.inet.InetAddresses] Is this a loopback interface? false
2020-10-22T15:39:21.096-0700 [DEBUG] [org.gradle.internal.remote.internal.inet.InetAddresses] Adding IP addresses for network interface Microsoft Teredo Tunneling Adapter
2020-10-22T15:39:21.098-0700 [DEBUG] [org.gradle.internal.remote.internal.inet.InetAddresses] Is this a loopback interface? false
2020-10-22T15:39:21.098-0700 [DEBUG] [org.gradle.internal.remote.internal.inet.InetAddresses] Adding IP addresses for network interface Hyper-V Virtual Switch Extension Adapter-Hyper-V Virtual Switch Extension Filter-0000
2020-10-22T15:39:21.100-0700 [DEBUG] [org.gradle.internal.remote.internal.inet.InetAddresses] Is this a loopback interface? false
2020-10-22T15:39:21.100-0700 [DEBUG] [org.gradle.internal.remote.internal.inet.InetAddresses] Adding IP addresses for network interface Intel(R) 82599 Virtual Function
2020-10-22T15:39:21.101-0700 [DEBUG] [org.gradle.internal.remote.internal.inet.InetAddresses] Is this a loopback interface? false
2020-10-22T15:39:21.102-0700 [DEBUG] [org.gradle.internal.remote.internal.inet.InetAddresses] Adding IP addresses for network interface Hyper-V Virtual Ethernet Adapter
2020-10-22T15:39:21.103-0700 [DEBUG] [org.gradle.internal.remote.internal.inet.InetAddresses] Is this a loopback interface? false
2020-10-22T15:39:21.103-0700 [DEBUG] [org.gradle.internal.remote.internal.inet.InetAddresses] Adding remote address /172.28.32.1
2020-10-22T15:39:21.103-0700 [DEBUG] [org.gradle.internal.remote.internal.inet.InetAddresses] Adding remote address /fe80:0:0:0:ded:ea84:2f89:a68%eth6
2020-10-22T15:39:21.104-0700 [DEBUG] [org.gradle.internal.remote.internal.inet.InetAddresses] Adding IP addresses for network interface Amazon Elastic Network Adapter-WFP Native MAC Layer LightWeight Filter-0000
2020-10-22T15:39:21.105-0700 [DEBUG] [org.gradle.internal.remote.internal.inet.InetAddresses] Is this a loopback interface? false
2020-10-22T15:39:21.105-0700 [DEBUG] [org.gradle.internal.remote.internal.inet.InetAddresses] Adding IP addresses for network interface Amazon Elastic Network Adapter-QoS Packet Scheduler-0000
2020-10-22T15:39:21.107-0700 [DEBUG] [org.gradle.internal.remote.internal.inet.InetAddresses] Is this a loopback interface? false
2020-10-22T15:39:21.107-0700 [DEBUG] [org.gradle.internal.remote.internal.inet.InetAddresses] Adding IP addresses for network interface Amazon Elastic Network Adapter-WFP 802.3 MAC Layer LightWeight Filter-0000
2020-10-22T15:39:21.109-0700 [DEBUG] [org.gradle.internal.remote.internal.inet.InetAddresses] Is this a loopback interface? false
2020-10-22T15:39:21.109-0700 [DEBUG] [org.gradle.internal.remote.internal.inet.InetAddresses] Adding IP addresses for network interface Hyper-V Virtual Ethernet Adapter-WFP Native MAC Layer LightWeight Filter-0000
2020-10-22T15:39:21.111-0700 [DEBUG] [org.gradle.internal.remote.internal.inet.InetAddresses] Is this a loopback interface? false
2020-10-22T15:39:21.111-0700 [DEBUG] [org.gradle.internal.remote.internal.inet.InetAddresses] Adding IP addresses for network interface Hyper-V Virtual Ethernet Adapter-QoS Packet Scheduler-0000
2020-10-22T15:39:21.112-0700 [DEBUG] [org.gradle.internal.remote.internal.inet.InetAddresses] Is this a loopback interface? false
2020-10-22T15:39:21.113-0700 [DEBUG] [org.gradle.internal.remote.internal.inet.InetAddresses] Adding IP addresses for network interface Hyper-V Virtual Ethernet Adapter-WFP 802.3 MAC Layer LightWeight Filter-0000
2020-10-22T15:39:21.114-0700 [DEBUG] [org.gradle.internal.remote.internal.inet.InetAddresses] Is this a loopback interface? false
2020-10-22T15:39:21.116-0700 [DEBUG] [org.gradle.internal.remote.internal.inet.TcpIncomingConnector] Listening on [c2025c32-b62e-4a6f-8658-cbdbc5df723e port:55712, addresses:[/127.0.0.1, /0:0:0:0:0:0:0:1]].
2020-10-22T15:39:21.124-0700 [DEBUG] [org.gradle.launcher.daemon.server.Daemon] Daemon starting at: Thu Oct 22 15:39:21 PDT 2020, with address: [c2025c32-b62e-4a6f-8658-cbdbc5df723e port:55712, addresses:[/127.0.0.1, /0:0:0:0:0:0:0:1]]
2020-10-22T15:39:21.125-0700 [INFO] [org.gradle.launcher.daemon.server.DaemonRegistryUpdater] Advertising the daemon address to the clients: [c2025c32-b62e-4a6f-8658-cbdbc5df723e port:55712, addresses:[/127.0.0.1, /0:0:0:0:0:0:0:1]]
2020-10-22T15:39:21.125-0700 [DEBUG] [org.gradle.launcher.daemon.server.DaemonRegistryUpdater] Advertised daemon context: DefaultDaemonContext[uid=2edb3378-7912-4905-b9df-c5c1888a63c2,javaHome=C:\Program Files\Java\jdk-11.0.8,daemonRegistryDir=J:\Scripts\base\PolicyCenter1010\gradle\cache\daemon,pid=10628,idleTimeout=120000,priority=NORMAL,daemonOpts=--add-opens,java.base/java.util=ALL-UNNAMED,--add-opens,java.base/java.lang=ALL-UNNAMED,--add-opens,java.base/java.lang.invoke=ALL-UNNAMED,--add-opens,java.prefs/java.util.prefs=ALL-UNNAMED,-Xms1g,-Xmx4g,-Dfile.encoding=windows-1252,-Duser.country=US,-Duser.language=en,-Duser.variant]
2020-10-22T15:39:21.126-0700 [DEBUG] [org.gradle.launcher.daemon.registry.PersistentDaemonRegistry] Storing daemon address: [c2025c32-b62e-4a6f-8658-cbdbc5df723e port:55712, addresses:[/127.0.0.1, /0:0:0:0:0:0:0:1]], context: DefaultDaemonContext[uid=2edb3378-7912-4905-b9df-c5c1888a63c2,javaHome=C:\Program Files\Java\jdk-11.0.8,daemonRegistryDir=J:\Scripts\base\PolicyCenter1010\gradle\cache\daemon,pid=10628,idleTimeout=120000,priority=NORMAL,daemonOpts=--add-opens,java.base/java.util=ALL-UNNAMED,--add-opens,java.base/java.lang=ALL-UNNAMED,--add-opens,java.base/java.lang.invoke=ALL-UNNAMED,--add-opens,java.prefs/java.util.prefs=ALL-UNNAMED,-Xms1g,-Xmx4g,-Dfile.encoding=windows-1252,-Duser.country=US,-Duser.language=en,-Duser.variant]
2020-10-22T15:39:21.143-0700 [DEBUG] [org.gradle.cache.internal.DefaultFileLockManager] Waiting to acquire exclusive lock on daemon addresses registry.
2020-10-22T15:39:21.146-0700 [DEBUG] [org.gradle.cache.internal.DefaultFileLockManager] Lock acquired on daemon addresses registry.
2020-10-22T15:39:21.153-0700 [DEBUG] [org.gradle.cache.internal.DefaultFileLockManager] Releasing lock on daemon addresses registry.
2020-10-22T15:39:21.154-0700 [LIFECYCLE] [org.gradle.launcher.daemon.server.Daemon] Daemon server started.
2020-10-22T15:39:21.155-0700 [DEBUG] [org.gradle.launcher.daemon.bootstrap.DaemonStartupCommunication] Completed writing the daemon greeting. Closing streams...
2020-10-22T15:39:21.161-0700 [DEBUG] [org.gradle.launcher.daemon.server.Daemon] stopOnExpiration() called on daemon
2020-10-22T15:39:21.162-0700 [DEBUG] [org.gradle.launcher.daemon.server.Daemon] awaitExpiration() called on daemon
2020-10-22T15:39:21.162-0700 [DEBUG] [org.gradle.launcher.daemon.server.DaemonStateCoordinator] daemon is running. Sleeping until state changes.
2020-10-22T15:39:21.273-0700 [DEBUG] [org.gradle.internal.remote.internal.inet.TcpIncomingConnector] Accepted connection from /127.0.0.1:55713 to /127.0.0.1:55712.
2020-10-22T15:39:21.309-0700 [DEBUG] [org.gradle.launcher.daemon.server.SynchronizedDispatchConnection] thread 20: received class org.gradle.launcher.daemon.protocol.Build
2020-10-22T15:39:21.310-0700 [DEBUG] [org.gradle.launcher.daemon.server.DefaultDaemonConnection] thread 20: Received non-IO message from client: Build{id=8fa2e393-ff78-471b-8f7a-d75ab008d755, currentDir=J:\Scripts\base\PolicyCenter1010}
2020-10-22T15:39:21.310-0700 [INFO] [org.gradle.launcher.daemon.server.DefaultIncomingConnectionHandler] Received command: Build{id=8fa2e393-ff78-471b-8f7a-d75ab008d755, currentDir=J:\Scripts\base\PolicyCenter1010}.
2020-10-22T15:39:21.311-0700 [DEBUG] [org.gradle.launcher.daemon.server.DefaultIncomingConnectionHandler] Starting executing command: Build{id=8fa2e393-ff78-471b-8f7a-d75ab008d755, currentDir=J:\Scripts\base\PolicyCenter1010} with connection: socket connection from /127.0.0.1:55712 to /127.0.0.1:55713.
2020-10-22T15:39:21.313-0700 [ERROR] [org.gradle.launcher.daemon.server.DaemonStateCoordinator] Command execution: started DaemonCommandExecution[command = Build{id=8fa2e393-ff78-471b-8f7a-d75ab008d755, currentDir=J:\Scripts\base\PolicyCenter1010}, connection = DefaultDaemonConnection: socket connection from /127.0.0.1:55712 to /127.0.0.1:55713] after 0.0 minutes of idle
2020-10-22T15:39:21.314-0700 [INFO] [org.gradle.launcher.daemon.server.DaemonRegistryUpdater] Marking the daemon as busy, address: [c2025c32-b62e-4a6f-8658-cbdbc5df723e port:55712, addresses:[/127.0.0.1, /0:0:0:0:0:0:0:1]]
2020-10-22T15:39:21.314-0700 [DEBUG] [org.gradle.launcher.daemon.registry.PersistentDaemonRegistry] Marking busy by address: [c2025c32-b62e-4a6f-8658-cbdbc5df723e port:55712, addresses:[/127.0.0.1, /0:0:0:0:0:0:0:1]]
2020-10-22T15:39:21.316-0700 [DEBUG] [org.gradle.cache.internal.DefaultFileLockManager] Waiting to acquire exclusive lock on daemon addresses registry.
2020-10-22T15:39:21.317-0700 [DEBUG] [org.gradle.cache.internal.DefaultFileLockManager] Lock acquired on daemon addresses registry.
2020-10-22T15:39:21.319-0700 [DEBUG] [org.gradle.cache.internal.DefaultFileLockManager] Releasing lock on daemon addresses registry.
2020-10-22T15:39:21.319-0700 [DEBUG] [org.gradle.launcher.daemon.server.DaemonStateCoordinator] resetting idle timer
2020-10-22T15:39:21.320-0700 [DEBUG] [org.gradle.launcher.daemon.server.DaemonStateCoordinator] daemon is running. Sleeping until state changes.
2020-10-22T15:39:21.320-0700 [INFO] [org.gradle.launcher.daemon.server.exec.StartBuildOrRespondWithBusy] Daemon is about to start building Build{id=8fa2e393-ff78-471b-8f7a-d75ab008d755, currentDir=J:\Scripts\base\PolicyCenter1010}. Dispatching build started information...
2020-10-22T15:39:21.320-0700 [DEBUG] [org.gradle.launcher.daemon.server.SynchronizedDispatchConnection] thread 22: dispatching class org.gradle.launcher.daemon.protocol.BuildStarted
2020-10-22T15:39:21.322-0700 [DEBUG] [org.gradle.launcher.daemon.server.exec.EstablishBuildEnvironment] Configuring env variables: {USERDOMAIN_ROAMINGPROFILE=DOMAIN, PROCESSOR_LEVEL=6, SESSIONNAME=RDP-Tcp#7, ALLUSERSPROFILE=C:\ProgramData, PROCESSOR_ARCHITECTURE=AMD64, PSModulePath=C:\Program Files\WindowsPowerShell\Modules;C:\Windows\system32\WindowsPowerShell\v1.0\Modules;C:\Program Files (x86)\AWS Tools\PowerShell\, SystemDrive=C:, MAVEN_HOME=C:\apache-maven-3.6.2, DIRNAME=J:\Scripts\base\PolicyCenter1010\, USERNAME=GuruM, USERDNSDOMAIN=CDA.CORP, CMD_LINE_ARGS=warTomcatDbcp, ProgramFiles(x86)=C:\Program Files (x86), APP_HOME=J:\Scripts\base\PolicyCenter1010\, DEFAULT_JVM_OPTS="-Xmx1g", PATHEXT=.COM;.EXE;.BAT;.CMD;.VBS;.VBE;.JS;.JSE;.WSF;.WSH;.MSC, DriverData=C:\Windows\System32\Drivers\DriverData, =J:=J:\Scripts\base\PolicyCenter1010, ProgramData=C:\ProgramData, ProgramW6432=C:\Program Files, HOMEPATH=\Users\gurum.DOMAIN, PROCESSOR_IDENTIFIER=Intel64 Family 6 Model 85 Stepping 4, GenuineIntel, ProgramFiles=C:\Program Files, PUBLIC=C:\Users\Public, windir=C:\Windows, =::=::\, _SKIP=2, LOCALAPPDATA=C:\Users\gurum.DOMAIN\AppData\Local, USERDOMAIN=DOMAIN, LOGONSERVER=\\A050NP-DC, JAVA_HOME=C:\Program Files\Java\jdk-11.0.8, PROMPT=$P$G, APPDATA=C:\Users\gurum.DOMAIN\AppData\Roaming, JAVA_EXE=C:\Program Files\Java\jdk-11.0.8/bin/java.exe, CommonProgramFiles=C:\Program Files\Common Files, Path=C:\Program Files\Common Files\Oracle\Java\javapath;C:\Windows\system32;C:\Windows;C:\Windows\System32\Wbem;C:\Windows\System32\WindowsPowerShell\v1.0\;C:\Windows\System32\OpenSSH\;C:\Program Files\Amazon\cfn-bootstrap\;C:\Windows\system32\config\systemprofile\AppData\Local\Microsoft\WindowsApps;C:\Program Files\Docker;C:\Program Files\Git\cmd;C:\apache-maven-3.6.2\bin;C:\Program Files\Java\jdk1.8.0_201\bin;C:\Users\gurum.DOMAIN\AppData\Local\Microsoft\WindowsApps;, OS=Windows_NT, COMPUTERNAME=A085GS-JNK, PROCESSOR_REVISION=5504, CLASSPATH=J:\Scripts\base\PolicyCenter1010\\gradle\wrapper\gradle-wrapper.jar, CommonProgramW6432=C:\Program Files\Common Files, ComSpec=C:\Windows\system32\cmd.exe, APP_BASE_NAME=gwb, SystemRoot=C:\Windows, TEMP=C:\Users\GURUM~1.DOM\AppData\Local\Temp\3, HOMEDRIVE=C:, USERPROFILE=C:\Users\gurum.DOMAIN, TMP=C:\Users\GURUM~1.DOM\AppData\Local\Temp\3, CommonProgramFiles(x86)=C:\Program Files (x86)\Common Files, NUMBER_OF_PROCESSORS=8, CLIENTNAME=SCL6046}
2020-10-22T15:39:21.329-0700 [DEBUG] [org.gradle.launcher.daemon.server.exec.LogToClient] About to start relaying all logs to the client via the connection.
2020-10-22T15:39:21.329-0700 [INFO] [org.gradle.launcher.daemon.server.exec.LogToClient] The client will now receive all logging from the daemon (pid: 10628). The daemon log file: J:\Scripts\base\PolicyCenter1010\gradle\cache\daemon\6.0.1\daemon-10628.out.log
2020-10-22T15:39:21.331-0700 [DEBUG] [org.gradle.launcher.daemon.server.exec.RequestStopIfSingleUsedDaemon] Requesting daemon stop after processing Build{id=8fa2e393-ff78-471b-8f7a-d75ab008d755, currentDir=J:\Scripts\base\PolicyCenter1010}
2020-10-22T15:39:21.331-0700 [LIFECYCLE] [org.gradle.launcher.daemon.server.DaemonStateCoordinator] Daemon will be stopped at the end of the build stopping after processing
2020-10-22T15:39:21.331-0700 [DEBUG] [org.gradle.launcher.daemon.server.DaemonStateCoordinator] Stop as soon as idle requested. The daemon is busy: true
2020-10-22T15:39:21.331-0700 [DEBUG] [org.gradle.launcher.daemon.server.DaemonStateCoordinator] daemon stop has been requested. Sleeping until state changes.
2020-10-22T15:39:21.335-0700 [DEBUG] [org.gradle.launcher.daemon.server.exec.ExecuteBuild] The daemon has started executing the build.
2020-10-22T15:39:21.336-0700 [DEBUG] [org.gradle.launcher.daemon.server.exec.ExecuteBuild] Executing build with daemon context: DefaultDaemonContext[uid=2edb3378-7912-4905-b9df-c5c1888a63c2,javaHome=C:\Program Files\Java\jdk-11.0.8,daemonRegistryDir=J:\Scripts\base\PolicyCenter1010\gradle\cache\daemon,pid=10628,idleTimeout=120000,priority=NORMAL,daemonOpts=--add-opens,java.base/java.util=ALL-UNNAMED,--add-opens,java.base/java.lang=ALL-UNNAMED,--add-opens,java.base/java.lang.invoke=ALL-UNNAMED,--add-opens,java.prefs/java.util.prefs=ALL-UNNAMED,-Xms1g,-Xmx4g,-Dfile.encoding=windows-1252,-Duser.country=US,-Duser.language=en,-Duser.variant]
Importing POM com.guidewire.pc:pc-parent:10.1.0
Importing parent POM com.guidewire.pc:pc-all:10.1.0
Importing POM com.guidewire.pc:pc-all:10.1.0
Current User : GuruM
Root Directory : D:/Guidewire/gw10basePLCP//GosuCodeNarcValidationTool
Empty bundle 'localization-codegen' for locale: en_US
Full code generation for module "configuration"
Generating code for 1241 entities(s) and 843 typelist(s)
Generated code for 1241 entities(s) and 843 typelist(s) in 9.75 seconds
J:\Scripts\base\PolicyCenter1010\modules\configuration\gsrc\acc\onbase\wsc\OnBaseGetDocWSC\GetDoc.wsdl (0,0): The package [acc.onbase.wsc.OnBaseGetDocWSC] may have case sensitivity issues on case insensitive file systems.  It is suggested to use all lowercase package names
J:\Scripts\base\PolicyCenter1010\modules\configuration\gsrc\acc\onbase\wsc\OnBaseWSPWSC\soapservice.wsdl (0,0): The package [acc.onbase.wsc.OnBaseWSPWSC] may have case sensitivity issues on case insensitive file systems.  It is suggested to use all lowercase package names
J:\Scripts\base\PolicyCenter1010\modules\configuration\gsrc\tdic\pc\integ\services\addressVerification\service.wsdl (0,0): The package [tdic.pc.integ.services.addressVerification] may have case sensitivity issues on case insensitive file systems.  It is suggested to use all lowercase package names
J:\Scripts\base\PolicyCenter1010\modules\configuration\gsrc\tdic\pc\integ\services\addressVerification\Service_svc.xsd (0,0): The package [tdic.pc.integ.services.addressVerification] may have case sensitivity issues on case insensitive file systems.  It is suggested to use all lowercase package names
J:\Scripts\base\PolicyCenter1010\modules\configuration\gsrc\tdic\pc\integ\services\addressVerification\Service_svc2.xsd (0,0): The package [tdic.pc.integ.services.addressVerification] may have case sensitivity issues on case insensitive file systems.  It is suggested to use all lowercase package names
J:\Scripts\base\PolicyCenter1010\modules\configuration\gsrc\tdic\pc\integ\services\streetSearch\Service.wsdl (0,0): The package [tdic.pc.integ.services.streetSearch] may have case sensitivity issues on case insensitive file systems.  It is suggested to use all lowercase package names
J:\Scripts\base\PolicyCenter1010\modules\configuration\gsrc\tdic\pc\integ\services\streetSearch\Service_svc.xsd (0,0): The package [tdic.pc.integ.services.streetSearch] may have case sensitivity issues on case insensitive file systems.  It is suggested to use all lowercase package names
J:\Scripts\base\PolicyCenter1010\modules\configuration\gsrc\tdic\pc\integ\services\streetSearch\Service_svc2.xsd (0,0): The package [tdic.pc.integ.services.streetSearch] may have case sensitivity issues on case insensitive file systems.  It is suggested to use all lowercase package names
Using classpath from J:\Scripts\base\PolicyCenter1010\modules\configuration\build\run\420dc53d718245f375e01224992ec8bcb98c20d2.txt
====================================================
= Running main class: com.guidewire.tools.flatten.ConfigFlattenerMain
=           JVM args: -Dgw.classpath.file=J:\Scripts\base\PolicyCenter1010\modules\configuration\build\run\420dc53d718245f375e01224992ec8bcb98c20d2.txt -Dgw.devroot.dir=J:\Scripts\base\PolicyCenter1010 -Dgw.internal.resourcelocators.targetModule=configuration -Xmx4g -Dfile.encoding=windows-1252 -Duser.country=US -Duser.language=en -Duser.variant -ea -cp J:\Scripts\base\PolicyCenter1010\modules\configuration\build\run\420dc53d718245f375e01224992ec8bcb98c20d2.jar com.guidewire.tools.flatten.ConfigFlattenerMain
=       Program args: -allGosu -targetDirectory J:\Scripts\base\PolicyCenter1010\modules\configuration\build\modules\configuration
=
Looking for the devroot starting from J:\Scripts\base\PolicyCenter1010
Detected CONFIG environment, root: J:\Scripts\base\PolicyCenter1010
Module path: [configuration]
2020-10-22 15:45:59,466 INFO Initiating configuration flattening to the target directory: J:\Scripts\base\PolicyCenter1010\modules\configuration\build\modules\configuration
2020-10-22 15:45:59,481 INFO Flattening configuration from file:///J:/Scripts/base/PolicyCenter1010/modules/configuration/
2020-10-22 15:46:18,373 INFO Flattening configuration from file:///J:/Scripts/base/PolicyCenter1010/modules/configuration/gsrc/
2020-10-22 15:46:25,409 INFO Flattening configuration from file:///J:/Scripts/base/PolicyCenter1010/modules/configuration/gtest/
Packaged Tomcat DBCP WAR to J:\Scripts\base\PolicyCenter1010\dist\wars\TomcatDbcp\pc.war

Deprecated Gradle features were used in this build, making it incompatible with Gradle 7.0.
Use '--warning-mode all' to show the individual deprecation warnings.
See https://docs.gradle.org/6.0.1/userguide/command_line_interface.html#sec:command_line_warnings

BUILD SUCCESSFUL in 9m 48s
18 actionable tasks: 11 executed, 7 up-to-date
2020-10-22T15:49:08.033-0700 [DEBUG] [org.gradle.launcher.daemon.server.exec.ExecuteBuild] The daemon has finished executing the build.
2020-10-22T15:49:08.050-0700 [DEBUG] [org.gradle.launcher.daemon.server.DaemonStateCoordinator] daemon stop has been requested. Sleeping until state changes.
2020-10-22T15:49:08.050-0700 [DEBUG] [org.gradle.launcher.daemon.server.DaemonStateCoordinator] Command execution: finished waiting for DaemonCommandExecution[command = Build{id=8fa2e393-ff78-471b-8f7a-d75ab008d755, currentDir=J:\Scripts\base\PolicyCenter1010}, connection = DefaultDaemonConnection: socket connection from /127.0.0.1:55712 to /127.0.0.1:55713]. Result org.gradle.launcher.daemon.server.DaemonStateCoordinator@30a58d1d with state StopRequested
2020-10-22T15:49:08.050-0700 [DEBUG] [org.gradle.launcher.daemon.server.DaemonStateCoordinator] Command execution: completed DaemonCommandExecution[command = Build{id=8fa2e393-ff78-471b-8f7a-d75ab008d755, currentDir=J:\Scripts\base\PolicyCenter1010}, connection = DefaultDaemonConnection: socket connection from /127.0.0.1:55712 to /127.0.0.1:55713]
2020-10-22T15:49:08.050-0700 [DEBUG] [org.gradle.launcher.daemon.server.DaemonStateCoordinator] resetting idle timer
2020-10-22T15:49:08.050-0700 [DEBUG] [org.gradle.launcher.daemon.server.DaemonStateCoordinator] Marking daemon stopped due to command completed and stop requested. The daemon is running a build: false
2020-10-22T15:49:08.050-0700 [DEBUG] [org.gradle.launcher.daemon.server.DaemonStateCoordinator] daemon has stopped.
2020-10-22T15:49:08.051-0700 [DEBUG] [org.gradle.launcher.daemon.server.exec.ReturnResult] Daemon is dispatching the build result: Success[value=org.gradle.launcher.exec.BuildActionResult@61535a9d]
2020-10-22T15:49:08.051-0700 [DEBUG] [org.gradle.launcher.daemon.server.Daemon] stop() called on daemon
2020-10-22T15:49:08.051-0700 [DEBUG] [org.gradle.launcher.daemon.server.SynchronizedDispatchConnection] thread 19: dispatching class org.gradle.launcher.daemon.protocol.Success
2020-10-22T15:49:08.051-0700 [INFO] [org.gradle.launcher.daemon.server.Daemon] Stop requested. Daemon is removing its presence from the registry...
2020-10-22T15:49:08.051-0700 [DEBUG] [org.gradle.launcher.daemon.server.DaemonRegistryUpdater] Removing our presence to clients, eg. removing this address from the registry: [c2025c32-b62e-4a6f-8658-cbdbc5df723e port:55712, addresses:[/127.0.0.1, /0:0:0:0:0:0:0:1]]
2020-10-22T15:49:08.052-0700 [DEBUG] [org.gradle.launcher.daemon.registry.PersistentDaemonRegistry] Removing daemon address: [c2025c32-b62e-4a6f-8658-cbdbc5df723e port:55712, addresses:[/127.0.0.1, /0:0:0:0:0:0:0:1]]
2020-10-22T15:49:08.052-0700 [DEBUG] [org.gradle.launcher.daemon.server.DefaultIncomingConnectionHandler] Finishing executing command: Build{id=8fa2e393-ff78-471b-8f7a-d75ab008d755, currentDir=J:\Scripts\base\PolicyCenter1010}
2020-10-22T15:49:08.053-0700 [DEBUG] [org.gradle.launcher.daemon.server.SynchronizedDispatchConnection] thread 20: received class org.gradle.launcher.daemon.protocol.CloseInput
2020-10-22T15:49:08.053-0700 [DEBUG] [org.gradle.launcher.daemon.server.DefaultDaemonConnection] thread 20: Received IO message from client: org.gradle.launcher.daemon.protocol.CloseInput@24dca115
2020-10-22T15:49:08.054-0700 [DEBUG] [org.gradle.launcher.daemon.server.SynchronizedDispatchConnection] thread 20: received class org.gradle.launcher.daemon.protocol.Finished
2020-10-22T15:49:08.053-0700 [DEBUG] [org.gradle.cache.internal.DefaultFileLockManager] Waiting to acquire exclusive lock on daemon addresses registry.
2020-10-22T15:49:08.054-0700 [DEBUG] [org.gradle.launcher.daemon.server.DefaultDaemonConnection] thread 20: Received non-IO message from client: org.gradle.launcher.daemon.protocol.Finished@3ff987f6
2020-10-22T15:49:08.054-0700 [DEBUG] [org.gradle.launcher.daemon.server.DefaultIncomingConnectionHandler] Received finished message: org.gradle.launcher.daemon.protocol.Finished@3ff987f6
2020-10-22T15:49:08.054-0700 [DEBUG] [org.gradle.launcher.daemon.server.SynchronizedDispatchConnection] thread 19: stopping connection
2020-10-22T15:49:08.055-0700 [DEBUG] [org.gradle.cache.internal.DefaultFileLockManager] Lock acquired on daemon addresses registry.
2020-10-22T15:49:08.056-0700 [DEBUG] [org.gradle.internal.remote.internal.inet.SocketConnection] Discarding EOFException: java.io.EOFException
2020-10-22T15:49:08.056-0700 [DEBUG] [org.gradle.launcher.daemon.server.SynchronizedDispatchConnection] thread 20: received null
2020-10-22T15:49:08.056-0700 [DEBUG] [org.gradle.launcher.daemon.server.DefaultDaemonConnection] thread 20: Received end-of-input from client.
2020-10-22T15:49:08.057-0700 [DEBUG] [org.gradle.launcher.daemon.server.SynchronizedDispatchConnection] thread 19: stopping connection
2020-10-22T15:49:08.058-0700 [DEBUG] [org.gradle.cache.internal.DefaultFileLockManager] Releasing lock on daemon addresses registry.
2020-10-22T15:49:08.058-0700 [DEBUG] [org.gradle.launcher.daemon.server.DaemonRegistryUpdater] Address removed from registry.
2020-10-22T15:49:08.059-0700 [DEBUG] [org.gradle.workers.internal.WorkerDaemonClientsManager] Stopping 2 worker daemon(s).
2020-10-22T15:49:08.230-0700 [DEBUG] [org.gradle.process.internal.DefaultExecHandle] Changing state to: SUCCEEDED
2020-10-22T15:49:08.230-0700 [DEBUG] [org.gradle.process.internal.DefaultExecHandle] Process 'Gradle Worker Daemon 1' finished with exit value 0 (state: SUCCEEDED)
2020-10-22T15:49:08.322-0700 [DEBUG] [org.gradle.process.internal.DefaultExecHandle] Changing state to: SUCCEEDED
2020-10-22T15:49:08.323-0700 [DEBUG] [org.gradle.process.internal.DefaultExecHandle] Process 'Gradle Worker Daemon 2' finished with exit value 0 (state: SUCCEEDED)
2020-10-22T15:49:08.324-0700 [INFO] [org.gradle.workers.internal.WorkerDaemonClientsManager] Stopped 2 worker daemon(s).
2020-10-22T15:49:08.325-0700 [DEBUG] [org.gradle.cache.internal.LockOnDemandCrossProcessCacheAccess] Releasing file lock for jars (J:\Scripts\base\PolicyCenter1010\gradle\cache\caches\jars-3)
2020-10-22T15:49:08.325-0700 [DEBUG] [org.gradle.cache.internal.DefaultFileLockManager] Releasing lock on jars (J:\Scripts\base\PolicyCenter1010\gradle\cache\caches\jars-3).
2020-10-22T15:49:08.326-0700 [DEBUG] [org.gradle.cache.internal.DefaultPersistentDirectoryStore] jars (J:\Scripts\base\PolicyCenter1010\gradle\cache\caches\jars-3) has last been fully cleaned up 0 hours ago
2020-10-22T15:49:08.332-0700 [DEBUG] [org.gradle.cache.internal.LockOnDemandCrossProcessCacheAccess] Releasing file lock for file content cache (J:\Scripts\base\PolicyCenter1010\gradle\cache\caches\6.0.1\fileContent)
2020-10-22T15:49:08.333-0700 [DEBUG] [org.gradle.cache.internal.DefaultFileLockManager] Releasing lock on file content cache (J:\Scripts\base\PolicyCenter1010\gradle\cache\caches\6.0.1\fileContent).
2020-10-22T15:49:08.334-0700 [DEBUG] [org.gradle.cache.internal.DefaultFileLockManager] Releasing lock on cache directory workerMain (J:\Scripts\base\PolicyCenter1010\gradle\cache\caches\6.0.1\workerMain).
2020-10-22T15:49:08.334-0700 [DEBUG] [org.gradle.cache.internal.DefaultCacheAccess] Cache Generated Gradle JARs cache (J:\Scripts\base\PolicyCenter1010\gradle\cache\caches\6.0.1\generated-gradle-jars) was closed 0 times.
2020-10-22T15:49:08.335-0700 [DEBUG] [org.gradle.cache.internal.LockOnDemandCrossProcessCacheAccess] Releasing file lock for file hash cache (J:\Scripts\base\PolicyCenter1010\gradle\cache\caches\6.0.1\fileHashes)
2020-10-22T15:49:08.335-0700 [DEBUG] [org.gradle.cache.internal.btree.BTreePersistentIndexedCache] Closing cache fileHashes.bin (J:\Scripts\base\PolicyCenter1010\gradle\cache\caches\6.0.1\fileHashes\fileHashes.bin)
2020-10-22T15:49:08.335-0700 [DEBUG] [org.gradle.cache.internal.btree.BTreePersistentIndexedCache] Closing cache resourceHashesCache.bin (J:\Scripts\base\PolicyCenter1010\gradle\cache\caches\6.0.1\fileHashes\resourceHashesCache.bin)
2020-10-22T15:49:08.335-0700 [DEBUG] [org.gradle.cache.internal.DefaultFileLockManager] Releasing lock on file hash cache (J:\Scripts\base\PolicyCenter1010\gradle\cache\caches\6.0.1\fileHashes).
2020-10-22T15:49:08.336-0700 [DEBUG] [org.gradle.cache.internal.DefaultPersistentDirectoryStore] artifact cache (J:\Scripts\base\PolicyCenter1010\gradle\cache\caches\modules-2) has last been fully cleaned up 0 hours ago
2020-10-22T15:49:08.337-0700 [DEBUG] [org.gradle.cache.internal.DefaultCacheAccess] Cache artifact cache (J:\Scripts\base\PolicyCenter1010\gradle\cache\caches\modules-2) was closed 0 times.
2020-10-22T15:49:08.337-0700 [DEBUG] [org.gradle.cache.internal.DefaultPersistentDirectoryStore] Artifact transforms cache (J:\Scripts\base\PolicyCenter1010\gradle\cache\caches\transforms-2) has last been fully cleaned up 0 hours ago
2020-10-22T15:49:08.337-0700 [DEBUG] [org.gradle.cache.internal.DefaultCacheAccess] Cache Artifact transforms cache (J:\Scripts\base\PolicyCenter1010\gradle\cache\caches\transforms-2) was closed 0 times.
2020-10-22T15:49:08.337-0700 [DEBUG] [org.gradle.cache.internal.LockOnDemandCrossProcessCacheAccess] Releasing file lock for journal cache (J:\Scripts\base\PolicyCenter1010\gradle\cache\caches\journal-1)
2020-10-22T15:49:08.337-0700 [DEBUG] [org.gradle.cache.internal.btree.BTreePersistentIndexedCache] Closing cache file-access.bin (J:\Scripts\base\PolicyCenter1010\gradle\cache\caches\journal-1\file-access.bin)
2020-10-22T15:49:08.338-0700 [DEBUG] [org.gradle.cache.internal.DefaultFileLockManager] Releasing lock on journal cache (J:\Scripts\base\PolicyCenter1010\gradle\cache\caches\journal-1).
2020-10-22T15:49:08.339-0700 [DEBUG] [org.gradle.cache.internal.LockOnDemandCrossProcessCacheAccess] Releasing file lock for execution history cache (J:\Scripts\base\PolicyCenter1010\gradle\cache\caches\6.0.1\executionHistory)
2020-10-22T15:49:08.339-0700 [DEBUG] [org.gradle.cache.internal.DefaultFileLockManager] Releasing lock on execution history cache (J:\Scripts\base\PolicyCenter1010\gradle\cache\caches\6.0.1\executionHistory).
Daemon vm is shutting down... The daemon has exited normally or was terminated in response to a user interrupt.
2020-10-22T15:49:08.342-0700 [DEBUG] [org.gradle.launcher.daemon.registry.PersistentDaemonRegistry] Removing daemon address: [c2025c32-b62e-4a6f-8658-cbdbc5df723e port:55712, addresses:[/127.0.0.1, /0:0:0:0:0:0:0:1]]
2020-10-22T15:49:08.352-0700 [DEBUG] [org.gradle.cache.internal.DefaultFileLockManager] Waiting to acquire exclusive lock on daemon addresses registry.
2020-10-22T15:49:08.353-0700 [DEBUG] [org.gradle.cache.internal.DefaultFileLockManager] Lock acquired on daemon addresses registry.
2020-10-22T15:49:08.354-0700 [DEBUG] [org.gradle.cache.internal.DefaultFileLockManager] Releasing lock on daemon addresses registry.
