2020-10-15T19:03:09.556-0400 [DEBUG] [org.gradle.launcher.daemon.bootstrap.DaemonMain] Assuming the daemon was started with following jvm opts: [--add-opens, java.base/java.util=ALL-UNNAMED, --add-opens, java.base/java.lang=ALL-UNNAMED, --add-opens, java.base/java.lang.invoke=ALL-UNNAMED, --add-opens, java.prefs/java.util.prefs=ALL-UNNAMED, -Xms1g, -Xmx4g, -Dfile.encoding=windows-1252, -Duser.country=US, -Duser.language=en, -Duser.variant]
2020-10-15T19:03:09.723-0400 [DEBUG] [org.gradle.internal.nativeintegration.services.NativeServices] Native-platform posix files integration is not available. Continuing with fallback.
2020-10-15T19:03:09.798-0400 [INFO] [org.gradle.launcher.daemon.server.Daemon] start() called on daemon - DefaultDaemonContext[uid=23c1a799-0cd7-4603-b039-d2491f459fa5,javaHome=C:\Program Files\Java\jdk-11.0.8,daemonRegistryDir=D:\Users\SouravB\Downloads\base-v2\gradle\cache\daemon,pid=7980,idleTimeout=120000,priority=NORMAL,daemonOpts=--add-opens,java.base/java.util=ALL-UNNAMED,--add-opens,java.base/java.lang=ALL-UNNAMED,--add-opens,java.base/java.lang.invoke=ALL-UNNAMED,--add-opens,java.prefs/java.util.prefs=ALL-UNNAMED,-Xms1g,-Xmx4g,-Dfile.encoding=windows-1252,-Duser.country=US,-Duser.language=en,-Duser.variant]
2020-10-15T19:03:09.899-0400 [DEBUG] [org.gradle.internal.remote.internal.inet.InetAddresses] Adding IP addresses for network interface Software Loopback Interface 1
2020-10-15T19:03:09.901-0400 [DEBUG] [org.gradle.internal.remote.internal.inet.InetAddresses] Is this a loopback interface? true
2020-10-15T19:03:09.901-0400 [DEBUG] [org.gradle.internal.remote.internal.inet.InetAddresses] Adding loopback address /127.0.0.1
2020-10-15T19:03:09.901-0400 [DEBUG] [org.gradle.internal.remote.internal.inet.InetAddresses] Adding loopback address /0:0:0:0:0:0:0:1
2020-10-15T19:03:09.904-0400 [DEBUG] [org.gradle.internal.remote.internal.inet.InetAddresses] Adding IP addresses for network interface Amazon Elastic Network Adapter
2020-10-15T19:03:09.905-0400 [DEBUG] [org.gradle.internal.remote.internal.inet.InetAddresses] Is this a loopback interface? false
2020-10-15T19:03:09.905-0400 [DEBUG] [org.gradle.internal.remote.internal.inet.InetAddresses] Adding remote address /172.31.117.255
2020-10-15T19:03:09.905-0400 [DEBUG] [org.gradle.internal.remote.internal.inet.InetAddresses] Adding remote address /fe80:0:0:0:2104:3a38:c309:87b3%eth0
2020-10-15T19:03:09.905-0400 [DEBUG] [org.gradle.internal.remote.internal.inet.InetAddresses] Adding IP addresses for network interface Microsoft Kernel Debug Network Adapter
2020-10-15T19:03:09.906-0400 [DEBUG] [org.gradle.internal.remote.internal.inet.InetAddresses] Is this a loopback interface? false
2020-10-15T19:03:09.906-0400 [DEBUG] [org.gradle.internal.remote.internal.inet.InetAddresses] Adding IP addresses for network interface Microsoft ISATAP Adapter
2020-10-15T19:03:09.907-0400 [DEBUG] [org.gradle.internal.remote.internal.inet.InetAddresses] Is this a loopback interface? false
2020-10-15T19:03:09.908-0400 [DEBUG] [org.gradle.internal.remote.internal.inet.InetAddresses] Adding remote address /fe80:0:0:0:0:5efe:ac8:6073%net0
2020-10-15T19:03:09.908-0400 [DEBUG] [org.gradle.internal.remote.internal.inet.InetAddresses] Adding IP addresses for network interface AWS PV Network Device #4
2020-10-15T19:03:09.909-0400 [DEBUG] [org.gradle.internal.remote.internal.inet.InetAddresses] Is this a loopback interface? false
2020-10-15T19:03:09.909-0400 [DEBUG] [org.gradle.internal.remote.internal.inet.InetAddresses] Adding IP addresses for network interface Amazon Elastic Network Adapter #2
2020-10-15T19:03:09.910-0400 [DEBUG] [org.gradle.internal.remote.internal.inet.InetAddresses] Is this a loopback interface? false
2020-10-15T19:03:09.911-0400 [DEBUG] [org.gradle.internal.remote.internal.inet.InetAddresses] Adding remote address /10.200.96.115
2020-10-15T19:03:09.911-0400 [DEBUG] [org.gradle.internal.remote.internal.inet.InetAddresses] Adding remote address /fe80:0:0:0:5c72:6600:8568:7879%eth3
2020-10-15T19:03:09.911-0400 [DEBUG] [org.gradle.internal.remote.internal.inet.InetAddresses] Adding IP addresses for network interface AWS PV Network Device #3
2020-10-15T19:03:09.912-0400 [DEBUG] [org.gradle.internal.remote.internal.inet.InetAddresses] Is this a loopback interface? false
2020-10-15T19:03:09.912-0400 [DEBUG] [org.gradle.internal.remote.internal.inet.InetAddresses] Adding IP addresses for network interface Teredo Tunneling Pseudo-Interface
2020-10-15T19:03:09.913-0400 [DEBUG] [org.gradle.internal.remote.internal.inet.InetAddresses] Is this a loopback interface? false
2020-10-15T19:03:09.913-0400 [DEBUG] [org.gradle.internal.remote.internal.inet.InetAddresses] Adding IP addresses for network interface Microsoft ISATAP Adapter #2
2020-10-15T19:03:09.914-0400 [DEBUG] [org.gradle.internal.remote.internal.inet.InetAddresses] Is this a loopback interface? false
2020-10-15T19:03:09.915-0400 [DEBUG] [org.gradle.internal.remote.internal.inet.InetAddresses] Adding remote address /fe80:0:0:0:0:5efe:ac1f:75ff%net2
2020-10-15T19:03:09.915-0400 [DEBUG] [org.gradle.internal.remote.internal.inet.InetAddresses] Adding IP addresses for network interface Amazon Elastic Network Adapter-WFP Native MAC Layer LightWeight Filter-0000
2020-10-15T19:03:09.916-0400 [DEBUG] [org.gradle.internal.remote.internal.inet.InetAddresses] Is this a loopback interface? false
2020-10-15T19:03:09.916-0400 [DEBUG] [org.gradle.internal.remote.internal.inet.InetAddresses] Adding IP addresses for network interface Amazon Elastic Network Adapter-QoS Packet Scheduler-0000
2020-10-15T19:03:09.917-0400 [DEBUG] [org.gradle.internal.remote.internal.inet.InetAddresses] Is this a loopback interface? false
2020-10-15T19:03:09.917-0400 [DEBUG] [org.gradle.internal.remote.internal.inet.InetAddresses] Adding IP addresses for network interface Amazon Elastic Network Adapter-WFP 802.3 MAC Layer LightWeight Filter-0000
2020-10-15T19:03:09.918-0400 [DEBUG] [org.gradle.internal.remote.internal.inet.InetAddresses] Is this a loopback interface? false
2020-10-15T19:03:09.918-0400 [DEBUG] [org.gradle.internal.remote.internal.inet.InetAddresses] Adding IP addresses for network interface Amazon Elastic Network Adapter #2-WFP Native MAC Layer LightWeight Filter-0000
2020-10-15T19:03:09.919-0400 [DEBUG] [org.gradle.internal.remote.internal.inet.InetAddresses] Is this a loopback interface? false
2020-10-15T19:03:09.920-0400 [DEBUG] [org.gradle.internal.remote.internal.inet.InetAddresses] Adding IP addresses for network interface Amazon Elastic Network Adapter #2-QoS Packet Scheduler-0000
2020-10-15T19:03:09.921-0400 [DEBUG] [org.gradle.internal.remote.internal.inet.InetAddresses] Is this a loopback interface? false
2020-10-15T19:03:09.921-0400 [DEBUG] [org.gradle.internal.remote.internal.inet.InetAddresses] Adding IP addresses for network interface Amazon Elastic Network Adapter #2-WFP 802.3 MAC Layer LightWeight Filter-0000
2020-10-15T19:03:09.922-0400 [DEBUG] [org.gradle.internal.remote.internal.inet.InetAddresses] Is this a loopback interface? false
2020-10-15T19:03:09.926-0400 [DEBUG] [org.gradle.internal.remote.internal.inet.TcpIncomingConnector] Listening on [bb03c176-c0eb-4245-bd87-a2ab1824755b port:51121, addresses:[/127.0.0.1, /0:0:0:0:0:0:0:1]].
2020-10-15T19:03:09.936-0400 [DEBUG] [org.gradle.launcher.daemon.server.Daemon] Daemon starting at: Thu Oct 15 19:03:09 EDT 2020, with address: [bb03c176-c0eb-4245-bd87-a2ab1824755b port:51121, addresses:[/127.0.0.1, /0:0:0:0:0:0:0:1]]
2020-10-15T19:03:09.937-0400 [INFO] [org.gradle.launcher.daemon.server.DaemonRegistryUpdater] Advertising the daemon address to the clients: [bb03c176-c0eb-4245-bd87-a2ab1824755b port:51121, addresses:[/127.0.0.1, /0:0:0:0:0:0:0:1]]
2020-10-15T19:03:09.937-0400 [DEBUG] [org.gradle.launcher.daemon.server.DaemonRegistryUpdater] Advertised daemon context: DefaultDaemonContext[uid=23c1a799-0cd7-4603-b039-d2491f459fa5,javaHome=C:\Program Files\Java\jdk-11.0.8,daemonRegistryDir=D:\Users\SouravB\Downloads\base-v2\gradle\cache\daemon,pid=7980,idleTimeout=120000,priority=NORMAL,daemonOpts=--add-opens,java.base/java.util=ALL-UNNAMED,--add-opens,java.base/java.lang=ALL-UNNAMED,--add-opens,java.base/java.lang.invoke=ALL-UNNAMED,--add-opens,java.prefs/java.util.prefs=ALL-UNNAMED,-Xms1g,-Xmx4g,-Dfile.encoding=windows-1252,-Duser.country=US,-Duser.language=en,-Duser.variant]
2020-10-15T19:03:09.939-0400 [DEBUG] [org.gradle.launcher.daemon.registry.PersistentDaemonRegistry] Storing daemon address: [bb03c176-c0eb-4245-bd87-a2ab1824755b port:51121, addresses:[/127.0.0.1, /0:0:0:0:0:0:0:1]], context: DefaultDaemonContext[uid=23c1a799-0cd7-4603-b039-d2491f459fa5,javaHome=C:\Program Files\Java\jdk-11.0.8,daemonRegistryDir=D:\Users\SouravB\Downloads\base-v2\gradle\cache\daemon,pid=7980,idleTimeout=120000,priority=NORMAL,daemonOpts=--add-opens,java.base/java.util=ALL-UNNAMED,--add-opens,java.base/java.lang=ALL-UNNAMED,--add-opens,java.base/java.lang.invoke=ALL-UNNAMED,--add-opens,java.prefs/java.util.prefs=ALL-UNNAMED,-Xms1g,-Xmx4g,-Dfile.encoding=windows-1252,-Duser.country=US,-Duser.language=en,-Duser.variant]
2020-10-15T19:03:09.949-0400 [DEBUG] [org.gradle.cache.internal.DefaultFileLockManager] Waiting to acquire exclusive lock on daemon addresses registry.
2020-10-15T19:03:09.953-0400 [DEBUG] [org.gradle.cache.internal.DefaultFileLockManager] Lock acquired on daemon addresses registry.
2020-10-15T19:03:09.959-0400 [DEBUG] [org.gradle.cache.internal.DefaultFileLockManager] Releasing lock on daemon addresses registry.
2020-10-15T19:03:09.960-0400 [LIFECYCLE] [org.gradle.launcher.daemon.server.Daemon] Daemon server started.
2020-10-15T19:03:09.962-0400 [DEBUG] [org.gradle.launcher.daemon.bootstrap.DaemonStartupCommunication] Completed writing the daemon greeting. Closing streams...
2020-10-15T19:03:09.969-0400 [DEBUG] [org.gradle.launcher.daemon.server.Daemon] stopOnExpiration() called on daemon
2020-10-15T19:03:09.971-0400 [DEBUG] [org.gradle.launcher.daemon.server.Daemon] awaitExpiration() called on daemon
2020-10-15T19:03:09.971-0400 [DEBUG] [org.gradle.launcher.daemon.server.DaemonStateCoordinator] daemon is running. Sleeping until state changes.
2020-10-15T19:03:10.040-0400 [DEBUG] [org.gradle.internal.remote.internal.inet.TcpIncomingConnector] Accepted connection from /127.0.0.1:51122 to /127.0.0.1:51121.
2020-10-15T19:03:10.090-0400 [DEBUG] [org.gradle.launcher.daemon.server.SynchronizedDispatchConnection] thread 20: received class org.gradle.launcher.daemon.protocol.Build
2020-10-15T19:03:10.091-0400 [DEBUG] [org.gradle.launcher.daemon.server.DefaultDaemonConnection] thread 20: Received non-IO message from client: Build{id=3de4fd1a-10ba-402e-ad0c-cb9e28aafd49, currentDir=D:\Users\SouravB\Downloads\base-v2}
2020-10-15T19:03:10.092-0400 [INFO] [org.gradle.launcher.daemon.server.DefaultIncomingConnectionHandler] Received command: Build{id=3de4fd1a-10ba-402e-ad0c-cb9e28aafd49, currentDir=D:\Users\SouravB\Downloads\base-v2}.
2020-10-15T19:03:10.092-0400 [DEBUG] [org.gradle.launcher.daemon.server.DefaultIncomingConnectionHandler] Starting executing command: Build{id=3de4fd1a-10ba-402e-ad0c-cb9e28aafd49, currentDir=D:\Users\SouravB\Downloads\base-v2} with connection: socket connection from /127.0.0.1:51121 to /127.0.0.1:51122.
2020-10-15T19:03:10.095-0400 [ERROR] [org.gradle.launcher.daemon.server.DaemonStateCoordinator] Command execution: started DaemonCommandExecution[command = Build{id=3de4fd1a-10ba-402e-ad0c-cb9e28aafd49, currentDir=D:\Users\SouravB\Downloads\base-v2}, connection = DefaultDaemonConnection: socket connection from /127.0.0.1:51121 to /127.0.0.1:51122] after 0.0 minutes of idle
2020-10-15T19:03:10.095-0400 [INFO] [org.gradle.launcher.daemon.server.DaemonRegistryUpdater] Marking the daemon as busy, address: [bb03c176-c0eb-4245-bd87-a2ab1824755b port:51121, addresses:[/127.0.0.1, /0:0:0:0:0:0:0:1]]
2020-10-15T19:03:10.096-0400 [DEBUG] [org.gradle.launcher.daemon.registry.PersistentDaemonRegistry] Marking busy by address: [bb03c176-c0eb-4245-bd87-a2ab1824755b port:51121, addresses:[/127.0.0.1, /0:0:0:0:0:0:0:1]]
2020-10-15T19:03:10.097-0400 [DEBUG] [org.gradle.cache.internal.DefaultFileLockManager] Waiting to acquire exclusive lock on daemon addresses registry.
2020-10-15T19:03:10.098-0400 [DEBUG] [org.gradle.cache.internal.DefaultFileLockManager] Lock acquired on daemon addresses registry.
2020-10-15T19:03:10.100-0400 [DEBUG] [org.gradle.cache.internal.DefaultFileLockManager] Releasing lock on daemon addresses registry.
2020-10-15T19:03:10.101-0400 [DEBUG] [org.gradle.launcher.daemon.server.DaemonStateCoordinator] resetting idle timer
2020-10-15T19:03:10.101-0400 [DEBUG] [org.gradle.launcher.daemon.server.DaemonStateCoordinator] daemon is running. Sleeping until state changes.
2020-10-15T19:03:10.102-0400 [INFO] [org.gradle.launcher.daemon.server.exec.StartBuildOrRespondWithBusy] Daemon is about to start building Build{id=3de4fd1a-10ba-402e-ad0c-cb9e28aafd49, currentDir=D:\Users\SouravB\Downloads\base-v2}. Dispatching build started information...
2020-10-15T19:03:10.102-0400 [DEBUG] [org.gradle.launcher.daemon.server.SynchronizedDispatchConnection] thread 22: dispatching class org.gradle.launcher.daemon.protocol.BuildStarted
2020-10-15T19:03:10.109-0400 [DEBUG] [org.gradle.launcher.daemon.server.exec.EstablishBuildEnvironment] Configuring env variables: {USERDOMAIN_ROAMINGPROFILE=DOMAIN, PROCESSOR_LEVEL=6, SESSIONNAME=Console, ALLUSERSPROFILE=C:\ProgramData, PROCESSOR_ARCHITECTURE=AMD64, STXHD_ACCOUNT_ID=180699916525, PSModulePath=C:\Program Files\WindowsPowerShell\Modules;C:\Windows\system32\WindowsPowerShell\v1.0\Modules;C:\Program Files (x86)\AWS Tools\PowerShell\;C:\Program Files (x86)\Microsoft SQL Server\140\Tools\PowerShell\Modules\, SystemDrive=C:, JRE_HOME=C:\Program Files\Java\jre1.8.0_191, STXHD_INSTANCE_ID=i-0abe67ed7259931ac, DIRNAME=D:\Users\SouravB\Downloads\base-v2\, USERNAME=SouravB, USERDNSDOMAIN=CDA.CORP, CMD_LINE_ARGS=compile, ProgramFiles(x86)=C:\Program Files (x86), APP_HOME=D:\Users\SouravB\Downloads\base-v2\, DEFAULT_JVM_OPTS="-Xmx1g", PATHEXT=.COM;.EXE;.BAT;.CMD;.VBS;.VBE;.JS;.JSE;.WSF;.WSH;.MSC, STXHD_PERFORMANCE=SPEED, ProgramData=C:\ProgramData, ProgramW6432=C:\Program Files, HOMEPATH=\Users\SouravB, PROCESSOR_IDENTIFIER=Intel64 Family 6 Model 85 Stepping 7, GenuineIntel, ProgramFiles=C:\Program Files, PUBLIC=C:\Users\Public, windir=C:\Windows, =::=::\, _SKIP=2, LOCALAPPDATA=D:\Users\SouravB\AppData\Local, USERDOMAIN=DOMAIN, LOGONSERVER=\\A050NP-DC, JAVA_HOME=C:\Program Files\Java\jdk-11.0.8, PROMPT=$P$G, ANT_HOME=D:\Guidewire\apache-ant-1.8.2, OneDrive=D:\Users\SouravB\OneDrive, APPDATA=D:\Users\SouravB\AppData\Roaming, JAVA_EXE=C:\Program Files\Java\jdk-11.0.8/bin/java.exe, STXHD_REGION=us-west-2, CommonProgramFiles=C:\Program Files\Common Files, Path=C:\Program Files\Common Files\Oracle\Java\javapath;C:\Program Files (x86)\Common Files\Oracle\Java\javapath;C:\Windows\system32;C:\Windows;C:\Windows\System32\Wbem;C:\Windows\System32\WindowsPowerShell\v1.0\;C:\Program Files\Amazon\cfn-bootstrap\;C:\Program Files\Microsoft SQL Server\Client SDK\ODBC\130\Tools\Binn\;C:\Program Files (x86)\Microsoft SQL Server\140\Tools\Binn\;C:\Program Files\Microsoft SQL Server\140\Tools\Binn\;C:\Program Files\Microsoft SQL Server\140\DTS\Binn\;C:\Program Files (x86)\Microsoft SQL Server\Client SDK\ODBC\130\Tools\Binn\;C:\Program Files (x86)\Microsoft SQL Server\140\DTS\Binn\;C:\Program Files (x86)\Microsoft SQL Server\140\Tools\Binn\ManagementStudio\;C:\Program Files\Git\cmd;D:\Guidewire\apache-ant-1.8.2\bin;C:\Program Files\TortoiseGit\bin;D:\Users\SouravB\AppData\Local\Microsoft\WindowsApps;, OS=Windows_NT, COMPUTERNAME=EC2AMAZ-59OFDH5, PROCESSOR_REVISION=5507, CLASSPATH=D:\Users\SouravB\Downloads\base-v2\\gradle\wrapper\gradle-wrapper.jar, CommonProgramW6432=C:\Program Files\Common Files, ComSpec=C:\Windows\system32\cmd.exe, APP_BASE_NAME=gwb, =D:=D:\Users\SouravB\Downloads\base-v2, SystemRoot=C:\Windows, TEMP=D:\Users\SouravB\AppData\Local\Temp\1, HOMEDRIVE=D:, USERPROFILE=D:\Users\SouravB, TMP=D:\Users\SouravB\AppData\Local\Temp\1, CommonProgramFiles(x86)=C:\Program Files (x86)\Common Files, NUMBER_OF_PROCESSORS=8}
2020-10-15T19:03:10.122-0400 [DEBUG] [org.gradle.launcher.daemon.server.exec.LogToClient] About to start relaying all logs to the client via the connection.
2020-10-15T19:03:10.122-0400 [INFO] [org.gradle.launcher.daemon.server.exec.LogToClient] The client will now receive all logging from the daemon (pid: 7980). The daemon log file: D:\Users\SouravB\Downloads\base-v2\gradle\cache\daemon\6.0.1\daemon-7980.out.log
2020-10-15T19:03:10.125-0400 [DEBUG] [org.gradle.launcher.daemon.server.exec.RequestStopIfSingleUsedDaemon] Requesting daemon stop after processing Build{id=3de4fd1a-10ba-402e-ad0c-cb9e28aafd49, currentDir=D:\Users\SouravB\Downloads\base-v2}
2020-10-15T19:03:10.125-0400 [LIFECYCLE] [org.gradle.launcher.daemon.server.DaemonStateCoordinator] Daemon will be stopped at the end of the build stopping after processing
2020-10-15T19:03:10.125-0400 [DEBUG] [org.gradle.launcher.daemon.server.DaemonStateCoordinator] Stop as soon as idle requested. The daemon is busy: true
2020-10-15T19:03:10.125-0400 [DEBUG] [org.gradle.launcher.daemon.server.DaemonStateCoordinator] daemon stop has been requested. Sleeping until state changes.
2020-10-15T19:03:10.132-0400 [DEBUG] [org.gradle.launcher.daemon.server.exec.ExecuteBuild] The daemon has started executing the build.
2020-10-15T19:03:10.132-0400 [DEBUG] [org.gradle.launcher.daemon.server.exec.ExecuteBuild] Executing build with daemon context: DefaultDaemonContext[uid=23c1a799-0cd7-4603-b039-d2491f459fa5,javaHome=C:\Program Files\Java\jdk-11.0.8,daemonRegistryDir=D:\Users\SouravB\Downloads\base-v2\gradle\cache\daemon,pid=7980,idleTimeout=120000,priority=NORMAL,daemonOpts=--add-opens,java.base/java.util=ALL-UNNAMED,--add-opens,java.base/java.lang=ALL-UNNAMED,--add-opens,java.base/java.lang.invoke=ALL-UNNAMED,--add-opens,java.prefs/java.util.prefs=ALL-UNNAMED,-Xms1g,-Xmx4g,-Dfile.encoding=windows-1252,-Duser.country=US,-Duser.language=en,-Duser.variant]
Importing POM com.guidewire.pc:pc-parent:10.1.0
Importing parent POM com.guidewire.pc:pc-all:10.1.0
Importing POM com.guidewire.pc:pc-all:10.1.0
Current User : SouravB
Root Directory : D:/Guidewire/gw10basePLCP//GosuCodeNarcValidationTool
Empty bundle 'localization-codegen' for locale: en_US
Full code generation for module "configuration"
Generating code for 1241 entities(s) and 843 typelist(s)
Generated code for 1241 entities(s) and 843 typelist(s) in 19.37 seconds
Note: Some input files use or override a deprecated API.
Note: Recompile with -Xlint:deprecation for details.
Note: Some input files use unchecked or unsafe operations.
Note: Recompile with -Xlint:unchecked for details.
D:\Users\SouravB\Downloads\base-v2\modules\configuration\generated\pcf\TDIC_NewEntityOwnerPopup.gs:[6,46] error: "WC7Line" is not a valid type. [line:6 col:46] in
line 5: public class TDIC_NewEntityOwnerPopup extends com.guidewire.pl.web.codegen.LocationBase {
line 6:   static function createDestination (line :  WC7Line, contactType :  ContactType) : pcf.api.Destination {
line 7:     return __newDestinationForLocation(pcf.TDIC_NewEntityOwnerPopup, {line, contactType}, 1)
D:\Users\SouravB\Downloads\base-v2\modules\configuration\generated\pcf\TDIC_NewEntityOwnerPopup.gs:[7,71] error: Could not resolve symbol for : line [line:7 col:71] in
line 6:   static function createDestination (line :  WC7Line, contactType :  ContactType) : pcf.api.Destination {
line 7:     return __newDestinationForLocation(pcf.TDIC_NewEntityOwnerPopup, {line, contactType}, 1)
line 8:   }
D:\Users\SouravB\Downloads\base-v2\modules\configuration\generated\pcf\TDIC_NewEntityOwnerPopup.gs:[10,46] error: "WC7Line" is not a valid type. [line:10 col:46] in
line  9:   
line 10:   static function createDestination (line :  WC7Line, contactType :  ContactType, clausePattern :  gw.api.productmodel.ClausePattern) : pcf.api.Destination {
line 11:     return __newDestinationForLocation(pcf.TDIC_NewEntityOwnerPopup, {line, contactType, clausePattern}, 0)
D:\Users\SouravB\Downloads\base-v2\modules\configuration\generated\pcf\TDIC_NewEntityOwnerPopup.gs:[11,71] error: Could not resolve symbol for : line [line:11 col:71] in
line 10:   static function createDestination (line :  WC7Line, contactType :  ContactType, clausePattern :  gw.api.productmodel.ClausePattern) : pcf.api.Destination {
line 11:     return __newDestinationForLocation(pcf.TDIC_NewEntityOwnerPopup, {line, contactType, clausePattern}, 0)
line 12:   }
D:\Users\SouravB\Downloads\base-v2\modules\configuration\generated\pcf\TDIC_NewEntityOwnerPopup.gs:[18,33] error: "WC7Line" is not a valid type. [line:18 col:33] in
line 17:   
line 18:   static function push (line :  WC7Line, contactType :  ContactType) : pcf.api.Location {
line 19:     return __newDestinationForLocation(pcf.TDIC_NewEntityOwnerPopup, {line, contactType}, 1).push()
D:\Users\SouravB\Downloads\base-v2\modules\configuration\generated\pcf\TDIC_NewEntityOwnerPopup.gs:[19,71] error: Could not resolve symbol for : line [line:19 col:71] in
line 18:   static function push (line :  WC7Line, contactType :  ContactType) : pcf.api.Location {
line 19:     return __newDestinationForLocation(pcf.TDIC_NewEntityOwnerPopup, {line, contactType}, 1).push()
line 20:   }
D:\Users\SouravB\Downloads\base-v2\modules\configuration\generated\pcf\TDIC_NewEntityOwnerPopup.gs:[22,33] error: "WC7Line" is not a valid type. [line:22 col:33] in
line 21:   
line 22:   static function push (line :  WC7Line, contactType :  ContactType, clausePattern :  gw.api.productmodel.ClausePattern) : pcf.api.Location {
line 23:     return __newDestinationForLocation(pcf.TDIC_NewEntityOwnerPopup, {line, contactType, clausePattern}, 0).push()
D:\Users\SouravB\Downloads\base-v2\modules\configuration\generated\pcf\TDIC_NewEntityOwnerPopup.gs:[23,71] error: Could not resolve symbol for : line [line:23 col:71] in
line 22:   static function push (line :  WC7Line, contactType :  ContactType, clausePattern :  gw.api.productmodel.ClausePattern) : pcf.api.Location {
line 23:     return __newDestinationForLocation(pcf.TDIC_NewEntityOwnerPopup, {line, contactType, clausePattern}, 0).push()
line 24:   }
D:\Users\SouravB\Downloads\base-v2\modules\configuration\generated\pcf\WC7NewLaborContractorForContactTypePopup.gs:[6,46] error: "WC7Line" is not a valid type. [line:6 col:46] in
line 5: public class WC7NewLaborContractorForContactTypePopup extends com.guidewire.pl.web.codegen.LocationBase {
line 6:   static function createDestination (line :  WC7Line, contactType :  typekey.ContactType, clausePattern :  gw.api.productmodel.ClausePattern) : pcf.api.Destination {
line 7:     return __newDestinationForLocation(pcf.WC7NewLaborContractorForContactTypePopup, {line, contactType, clausePattern}, 0)
D:\Users\SouravB\Downloads\base-v2\modules\configuration\generated\pcf\WC7NewLaborContractorForContactTypePopup.gs:[7,87] error: Could not resolve symbol for : line [line:7 col:87] in
line 6:   static function createDestination (line :  WC7Line, contactType :  typekey.ContactType, clausePattern :  gw.api.productmodel.ClausePattern) : pcf.api.Destination {
line 7:     return __newDestinationForLocation(pcf.WC7NewLaborContractorForContactTypePopup, {line, contactType, clausePattern}, 0)
line 8:   }
D:\Users\SouravB\Downloads\base-v2\modules\configuration\generated\pcf\WC7NewLaborContractorForContactTypePopup.gs:[14,33] error: "WC7Line" is not a valid type. [line:14 col:33] in
line 13:   
line 14:   static function push (line :  WC7Line, contactType :  typekey.ContactType, clausePattern :  gw.api.productmodel.ClausePattern) : pcf.api.Location {
line 15:     return __newDestinationForLocation(pcf.WC7NewLaborContractorForContactTypePopup, {line, contactType, clausePattern}, 0).push()
D:\Users\SouravB\Downloads\base-v2\modules\configuration\generated\pcf\WC7NewLaborContractorForContactTypePopup.gs:[15,87] error: Could not resolve symbol for : line [line:15 col:87] in
line 14:   static function push (line :  WC7Line, contactType :  typekey.ContactType, clausePattern :  gw.api.productmodel.ClausePattern) : pcf.api.Location {
line 15:     return __newDestinationForLocation(pcf.WC7NewLaborContractorForContactTypePopup, {line, contactType, clausePattern}, 0).push()
line 16:   }
D:\Users\SouravB\Downloads\base-v2\modules\configuration\generated\pcf\WC7NewOwnerOfficerPopup.gs:[6,46] error: "WC7Line" is not a valid type. [line:6 col:46] in
line 5: public class WC7NewOwnerOfficerPopup extends com.guidewire.pl.web.codegen.LocationBase {
line 6:   static function createDestination (line :  WC7Line, contactType :  ContactType) : pcf.api.Destination {
line 7:     return __newDestinationForLocation(pcf.WC7NewOwnerOfficerPopup, {line, contactType}, 0)
D:\Users\SouravB\Downloads\base-v2\modules\configuration\generated\pcf\WC7NewOwnerOfficerPopup.gs:[7,70] error: Could not resolve symbol for : line [line:7 col:70] in
line 6:   static function createDestination (line :  WC7Line, contactType :  ContactType) : pcf.api.Destination {
line 7:     return __newDestinationForLocation(pcf.WC7NewOwnerOfficerPopup, {line, contactType}, 0)
line 8:   }
D:\Users\SouravB\Downloads\base-v2\modules\configuration\generated\pcf\WC7NewOwnerOfficerPopup.gs:[10,46] error: "WC7Line" is not a valid type. [line:10 col:46] in
line  9:   
line 10:   static function createDestination (line :  WC7Line, contactType :  ContactType, clausePattern :  gw.api.productmodel.ClausePattern) : pcf.api.Destination {
line 11:     return __newDestinationForLocation(pcf.WC7NewOwnerOfficerPopup, {line, contactType, clausePattern}, 1)
D:\Users\SouravB\Downloads\base-v2\modules\configuration\generated\pcf\WC7NewOwnerOfficerPopup.gs:[11,70] error: Could not resolve symbol for : line [line:11 col:70] in
line 10:   static function createDestination (line :  WC7Line, contactType :  ContactType, clausePattern :  gw.api.productmodel.ClausePattern) : pcf.api.Destination {
line 11:     return __newDestinationForLocation(pcf.WC7NewOwnerOfficerPopup, {line, contactType, clausePattern}, 1)
line 12:   }
D:\Users\SouravB\Downloads\base-v2\modules\configuration\generated\pcf\WC7NewOwnerOfficerPopup.gs:[18,33] error: "WC7Line" is not a valid type. [line:18 col:33] in
line 17:   
line 18:   static function push (line :  WC7Line, contactType :  ContactType) : pcf.api.Location {
line 19:     return __newDestinationForLocation(pcf.WC7NewOwnerOfficerPopup, {line, contactType}, 0).push()
D:\Users\SouravB\Downloads\base-v2\modules\configuration\generated\pcf\WC7NewOwnerOfficerPopup.gs:[19,70] error: Could not resolve symbol for : line [line:19 col:70] in
line 18:   static function push (line :  WC7Line, contactType :  ContactType) : pcf.api.Location {
line 19:     return __newDestinationForLocation(pcf.WC7NewOwnerOfficerPopup, {line, contactType}, 0).push()
line 20:   }
D:\Users\SouravB\Downloads\base-v2\modules\configuration\generated\pcf\WC7NewOwnerOfficerPopup.gs:[22,33] error: "WC7Line" is not a valid type. [line:22 col:33] in
line 21:   
line 22:   static function push (line :  WC7Line, contactType :  ContactType, clausePattern :  gw.api.productmodel.ClausePattern) : pcf.api.Location {
line 23:     return __newDestinationForLocation(pcf.WC7NewOwnerOfficerPopup, {line, contactType, clausePattern}, 1).push()
D:\Users\SouravB\Downloads\base-v2\modules\configuration\generated\pcf\WC7NewOwnerOfficerPopup.gs:[23,70] error: Could not resolve symbol for : line [line:23 col:70] in
line 22:   static function push (line :  WC7Line, contactType :  ContactType, clausePattern :  gw.api.productmodel.ClausePattern) : pcf.api.Location {
line 23:     return __newDestinationForLocation(pcf.WC7NewOwnerOfficerPopup, {line, contactType, clausePattern}, 1).push()
line 24:   }
D:\Users\SouravB\Downloads\base-v2\modules\configuration\generated\pcf\WC7RemoveSplitPeriodPopup.gs:[6,48] error: Expecting a type name. [line:6 col:48] in
line 5: public class WC7RemoveSplitPeriodPopup extends com.guidewire.pl.web.codegen.LocationBase {
line 6:   static function createDestination (wcLine :  productmodel.WC7Line, jurisdictions :  WC7Jurisdiction[]) : pcf.api.Destination {
line 7:     return __newDestinationForLocation(pcf.WC7RemoveSplitPeriodPopup, {wcLine, jurisdictions}, 0)
D:\Users\SouravB\Downloads\base-v2\modules\configuration\generated\pcf\WC7RemoveSplitPeriodPopup.gs:[6,48] error: No type WC7Line found in package productmodel [line:6 col:48] in
line 5: public class WC7RemoveSplitPeriodPopup extends com.guidewire.pl.web.codegen.LocationBase {
line 6:   static function createDestination (wcLine :  productmodel.WC7Line, jurisdictions :  WC7Jurisdiction[]) : pcf.api.Destination {
line 7:     return __newDestinationForLocation(pcf.WC7RemoveSplitPeriodPopup, {wcLine, jurisdictions}, 0)
D:\Users\SouravB\Downloads\base-v2\modules\configuration\generated\pcf\WC7RemoveSplitPeriodPopup.gs:[7,72] error: Could not resolve symbol for : wcLine [line:7 col:72] in
line 6:   static function createDestination (wcLine :  productmodel.WC7Line, jurisdictions :  WC7Jurisdiction[]) : pcf.api.Destination {
line 7:     return __newDestinationForLocation(pcf.WC7RemoveSplitPeriodPopup, {wcLine, jurisdictions}, 0)
line 8:   }
D:\Users\SouravB\Downloads\base-v2\modules\configuration\generated\pcf\WC7RemoveSplitPeriodPopup.gs:[10,35] error: Expecting a type name. [line:10 col:35] in
line  9:   
line 10:   static function push (wcLine :  productmodel.WC7Line, jurisdictions :  WC7Jurisdiction[]) : pcf.api.Location {
line 11:     return __newDestinationForLocation(pcf.WC7RemoveSplitPeriodPopup, {wcLine, jurisdictions}, 0).push()
D:\Users\SouravB\Downloads\base-v2\modules\configuration\generated\pcf\WC7RemoveSplitPeriodPopup.gs:[10,35] error: No type WC7Line found in package productmodel [line:10 col:35] in
line  9:   
line 10:   static function push (wcLine :  productmodel.WC7Line, jurisdictions :  WC7Jurisdiction[]) : pcf.api.Location {
line 11:     return __newDestinationForLocation(pcf.WC7RemoveSplitPeriodPopup, {wcLine, jurisdictions}, 0).push()
D:\Users\SouravB\Downloads\base-v2\modules\configuration\generated\pcf\WC7RemoveSplitPeriodPopup.gs:[11,72] error: Could not resolve symbol for : wcLine [line:11 col:72] in
line 10:   static function push (wcLine :  productmodel.WC7Line, jurisdictions :  WC7Jurisdiction[]) : pcf.api.Location {
line 11:     return __newDestinationForLocation(pcf.WC7RemoveSplitPeriodPopup, {wcLine, jurisdictions}, 0).push()
line 12:   }
D:\Users\SouravB\Downloads\base-v2\modules\configuration\generated\pcf\WC7SplitPeriodPopup.gs:[6,48] error: Expecting a type name. [line:6 col:48] in
line 5: public class WC7SplitPeriodPopup extends com.guidewire.pl.web.codegen.LocationBase {
line 6:   static function createDestination (wcLine :  productmodel.WC7Line, jurisdictions :  WC7Jurisdiction[]) : pcf.api.Destination {
line 7:     return __newDestinationForLocation(pcf.WC7SplitPeriodPopup, {wcLine, jurisdictions}, 0)
D:\Users\SouravB\Downloads\base-v2\modules\configuration\generated\pcf\WC7SplitPeriodPopup.gs:[6,48] error: No type WC7Line found in package productmodel [line:6 col:48] in
line 5: public class WC7SplitPeriodPopup extends com.guidewire.pl.web.codegen.LocationBase {
line 6:   static function createDestination (wcLine :  productmodel.WC7Line, jurisdictions :  WC7Jurisdiction[]) : pcf.api.Destination {
line 7:     return __newDestinationForLocation(pcf.WC7SplitPeriodPopup, {wcLine, jurisdictions}, 0)
D:\Users\SouravB\Downloads\base-v2\modules\configuration\generated\pcf\WC7SplitPeriodPopup.gs:[7,66] error: Could not resolve symbol for : wcLine [line:7 col:66] in
line 6:   static function createDestination (wcLine :  productmodel.WC7Line, jurisdictions :  WC7Jurisdiction[]) : pcf.api.Destination {
line 7:     return __newDestinationForLocation(pcf.WC7SplitPeriodPopup, {wcLine, jurisdictions}, 0)
line 8:   }
D:\Users\SouravB\Downloads\base-v2\modules\configuration\generated\pcf\WC7SplitPeriodPopup.gs:[10,35] error: Expecting a type name. [line:10 col:35] in
line  9:   
line 10:   static function push (wcLine :  productmodel.WC7Line, jurisdictions :  WC7Jurisdiction[]) : pcf.api.Location {
line 11:     return __newDestinationForLocation(pcf.WC7SplitPeriodPopup, {wcLine, jurisdictions}, 0).push()
D:\Users\SouravB\Downloads\base-v2\modules\configuration\generated\pcf\WC7SplitPeriodPopup.gs:[10,35] error: No type WC7Line found in package productmodel [line:10 col:35] in
line  9:   
line 10:   static function push (wcLine :  productmodel.WC7Line, jurisdictions :  WC7Jurisdiction[]) : pcf.api.Location {
line 11:     return __newDestinationForLocation(pcf.WC7SplitPeriodPopup, {wcLine, jurisdictions}, 0).push()
D:\Users\SouravB\Downloads\base-v2\modules\configuration\generated\pcf\WC7SplitPeriodPopup.gs:[11,66] error: Could not resolve symbol for : wcLine [line:11 col:66] in
line 10:   static function push (wcLine :  productmodel.WC7Line, jurisdictions :  WC7Jurisdiction[]) : pcf.api.Location {
line 11:     return __newDestinationForLocation(pcf.WC7SplitPeriodPopup, {wcLine, jurisdictions}, 0).push()
line 12:   }
D:\Users\SouravB\Downloads\base-v2\modules\configuration\generated\pcfc\expressions\AccountFile_WorkOrdersExpressions.gs:[334,14] error: No property descriptor found for property, WC7LineExists, on class, entity.PolicyPeriod [line:334 col:14] in
line 333:     function value_41 () : String {
line 334:       return job.LatestPeriod.WC7LineExists ? job.Policy.Product.DisplayName : job.LatestPeriod.Offering.DisplayName
line 335:     }
D:\Users\SouravB\Downloads\base-v2\modules\configuration\generated\pcfc\expressions\AccountFile_WorkOrdersExpressions.gs:[334,14] error: boolean expected. [line:334 col:14] in
line 333:     function value_41 () : String {
line 334:       return job.LatestPeriod.WC7LineExists ? job.Policy.Product.DisplayName : job.LatestPeriod.Offering.DisplayName
line 335:     }
D:\Users\SouravB\Downloads\base-v2\modules\configuration\generated\pcfc\expressions\AccountInfoInputSetExpressions.gs:[330,14] error: No property descriptor found for property, WC7LineExists, on class, entity.PolicyPeriod [line:330 col:14] in
line 329:     function visible_51 () : java.lang.Boolean {
line 330:       return primaryNamedInsured.Branch.WC7LineExists and primaryNamedInsured.Branch.Policy.Product.isContactTypeSuitableForProductAccountType(Company)
line 331:     }
D:\Users\SouravB\Downloads\base-v2\modules\configuration\generated\pcfc\expressions\AccountInfoInputSetExpressions.gs:[345,55] error: No property descriptor found for property, WC7LineExists, on class, entity.PolicyPeriod [line:345 col:55] in
line 344:     function visible_78 () : java.lang.Boolean {
line 345:       return period.Policy.Product.Commercial and not period.WC7LineExists and !(quoteType == QuoteType.TC_QUICK)
line 346:     }
D:\Users\SouravB\Downloads\base-v2\modules\configuration\generated\pcfc\expressions\AccountInfoInputSetExpressions.gs:[345,55] error: The type "ErrorType" cannot be converted to "boolean" [line:345 col:55] in
line 344:     function visible_78 () : java.lang.Boolean {
line 345:       return period.Policy.Product.Commercial and not period.WC7LineExists and !(quoteType == QuoteType.TC_QUICK)
line 346:     }
D:\Users\SouravB\Downloads\base-v2\modules\configuration\generated\pcfc\expressions\AccountInfoInputSetExpressions.gs:[436,11] error: No property descriptor found for property, WC7LineExists, on class, entity.PolicyPeriod [line:436 col:11] in
line 435:     function getAccountOrgTypeSelections_TDIC() : typekey.PolicyOrgType_TDIC[] {
line 436:       if (period.WC7LineExists) {
line 437:         return typekey.PolicyOrgType_TDIC.AllTypeKeys.where(\elt -> elt != TC_OTHER).toTypedArray()
D:\Users\SouravB\Downloads\base-v2\modules\configuration\generated\pcfc\expressions\AdditionalNamedInsuredsDVExpressions.gs:[41,14] error: No property descriptor found for property, WC7LineExists, on class, entity.PolicyPeriod [line:41 col:14] in
line 40:     function initialValue_4 () : boolean {
line 41:       return period.WC7LineExists
line 42:     }
D:\Users\SouravB\Downloads\base-v2\modules\configuration\generated\pcfc\expressions\AuditAdjustmentsDV_EditableExpressions.gs:[36,14] error: No property descriptor found for property, WC7LineExists, on class, entity.PolicyPeriod [line:36 col:14] in
line 35:     function valueRange_7 () : java.lang.Object {
line 36:       return policyPeriod.WC7LineExists ? FinalAuditOption.TF_WC7OPTIONS_TDIC.getTypeKeys() : typekey.FinalAuditOption.getTypeKeys( true )
line 37:     }
D:\Users\SouravB\Downloads\base-v2\modules\configuration\generated\pcfc\expressions\AuditAdjustmentsDV_EditableExpressions.gs:[36,14] error: boolean expected. [line:36 col:14] in
line 35:     function valueRange_7 () : java.lang.Object {
line 36:       return policyPeriod.WC7LineExists ? FinalAuditOption.TF_WC7OPTIONS_TDIC.getTypeKeys() : typekey.FinalAuditOption.getTypeKeys( true )
line 37:     }
D:\Users\SouravB\Downloads\base-v2\modules\configuration\generated\pcfc\expressions\AuditAdjustmentsDV_EditableExpressions.gs:[61,29] error: No property descriptor found for property, WC7LineExists, on class, entity.PolicyPeriod [line:61 col:29] in
line 60:     function verifyValueRange_9 () : void {
line 61:       var __valueRangeArg = policyPeriod.WC7LineExists ? FinalAuditOption.TF_WC7OPTIONS_TDIC.getTypeKeys() : typekey.FinalAuditOption.getTypeKeys( true )
line 62:       // If this call fails to compile, possibly with an error saying it's an ambiguous method call,
D:\Users\SouravB\Downloads\base-v2\modules\configuration\generated\pcfc\expressions\AuditAdjustmentsDV_EditableExpressions.gs:[61,29] error: boolean expected. [line:61 col:29] in
line 60:     function verifyValueRange_9 () : void {
line 61:       var __valueRangeArg = policyPeriod.WC7LineExists ? FinalAuditOption.TF_WC7OPTIONS_TDIC.getTypeKeys() : typekey.FinalAuditOption.getTypeKeys( true )
line 62:       // If this call fails to compile, possibly with an error saying it's an ambiguous method call,
D:\Users\SouravB\Downloads\base-v2\modules\configuration\generated\pcfc\expressions\AuditDetailsPanelSet_WC7WorkersCompExpressions.gs:[30,34] error: "WC7Line" is not a valid type. [line:30 col:34] in
line 29:     // 'initialValue' attribute on Variable at AuditDetailsPanelSet.WC7WorkersComp.pcf: line 24, column 23
line 30:     function initialValue_2 () : WC7Line {
line 31:       return policyPeriod.WC7Line
D:\Users\SouravB\Downloads\base-v2\modules\configuration\generated\pcfc\expressions\AuditDetailsPanelSet_WC7WorkersCompExpressions.gs:[31,14] error: No property descriptor found for property, WC7Line, on class, entity.PolicyPeriod [line:31 col:14] in
line 30:     function initialValue_2 () : WC7Line {
line 31:       return policyPeriod.WC7Line
line 32:     }
D:\Users\SouravB\Downloads\base-v2\modules\configuration\generated\pcfc\expressions\AuditDetailsPanelSet_WC7WorkersCompExpressions.gs:[36,14] error: No property descriptor found for property, WC7Line, on class, entity.PolicyPeriod [line:36 col:14] in
line 35:     function initialValue_3 () : entity.WC7Jurisdiction[] {
line 36:       return policyPeriod.WC7Line.WC7Jurisdictions
line 37:     }
D:\Users\SouravB\Downloads\base-v2\modules\configuration\generated\pcfc\expressions\AuditDetailsPanelSet_WC7WorkersCompExpressions.gs:[94,30] error: "WC7Line" is not a valid type. [line:94 col:30] in
line 93:     
line 94:     property get wcLine () : WC7Line {
line 95:       return getVariableValue("wcLine", 0) as WC7Line
D:\Users\SouravB\Downloads\base-v2\modules\configuration\generated\pcfc\expressions\AuditDetailsPanelSet_WC7WorkersCompExpressions.gs:[95,47] error: "WC7Line" is not a valid type. [line:95 col:47] in
line 94:     property get wcLine () : WC7Line {
line 95:       return getVariableValue("wcLine", 0) as WC7Line
line 96:     }
D:\Users\SouravB\Downloads\base-v2\modules\configuration\generated\pcfc\expressions\AuditDetailsPanelSet_WC7WorkersCompExpressions.gs:[98,34] error: "WC7Line" is not a valid type. [line:98 col:34] in
line 97:     
line 98:     property set wcLine ($arg :  WC7Line) {
line 99:       setVariableValue("wcLine", 0, $arg)
D:\Users\SouravB\Downloads\base-v2\modules\configuration\generated\pcfc\expressions\AuditDetailsPanelSet_WC7WorkersCompExpressions.gs:[99,37] error: Could not resolve symbol for : $arg [line:99 col:37] in
line  98:     property set wcLine ($arg :  WC7Line) {
line  99:       setVariableValue("wcLine", 0, $arg)
line 100:     }
D:\Users\SouravB\Downloads\base-v2\modules\configuration\generated\pcfc\expressions\AuditDetailsPanelSet_WC7WorkersCompExpressions.gs:[127,79] error: Could not resolve symbol for : wcLine [line:127 col:79] in
line 126:     function initialValue_63 () : Integer {
line 127:       return gw.pcf.WC7AuditDetailsPanelSetUIHelper.getTotalAuditedBasis_TDIC(wcLine, aClassCode, ratingPeriod)
line 128:     }
D:\Users\SouravB\Downloads\base-v2\modules\configuration\generated\pcfc\expressions\AuditDetailsPanelSet_WC7WorkersCompExpressions.gs:[132,82] error: Could not resolve symbol for : wcLine [line:132 col:82] in
line 131:     function initialValue_64 () : String {
line 132:       return gw.pcf.WC7AuditDetailsPanelSetUIHelper.getClassCodeDescription_TDIC(wcLine,aClassCode)
line 133:     }
D:\Users\SouravB\Downloads\base-v2\modules\configuration\generated\pcfc\expressions\AuditDetailsPanelSet_WC7WorkersCompExpressions.gs:[137,94] error: Could not resolve symbol for : wcLine [line:137 col:94] in
line 136:     function initializeVariables_69 () : void {
line 137:         totalAuditedBasis = gw.pcf.WC7AuditDetailsPanelSetUIHelper.getTotalAuditedBasis_TDIC(wcLine, aClassCode, ratingPeriod);
line 138:   classCodeDesc = gw.pcf.WC7AuditDetailsPanelSetUIHelper.getClassCodeDescription_TDIC(wcLine,aClassCode);
D:\Users\SouravB\Downloads\base-v2\modules\configuration\generated\pcfc\expressions\AuditDetailsPanelSet_WC7WorkersCompExpressions.gs:[138,87] error: Could not resolve symbol for : wcLine [line:138 col:87] in
line 137:         totalAuditedBasis = gw.pcf.WC7AuditDetailsPanelSetUIHelper.getTotalAuditedBasis_TDIC(wcLine, aClassCode, ratingPeriod);
line 138:   classCodeDesc = gw.pcf.WC7AuditDetailsPanelSetUIHelper.getClassCodeDescription_TDIC(wcLine,aClassCode);
line 139: 
D:\Users\SouravB\Downloads\base-v2\modules\configuration\generated\pcfc\expressions\AuditDetailsPanelSet_WC7WorkersCompExpressions.gs:[719,107] error: Could not resolve symbol for : wcLine [line:719 col:107] in
line 718:     function sortValue_62 (aClassCode :  String) : java.lang.Object {
line 719:       var totalAuditedBasis : Integer = (gw.pcf.WC7AuditDetailsPanelSetUIHelper.getTotalAuditedBasis_TDIC(wcLine, aClassCode, ratingPeriod))
line 720: var classCodeDesc : String = (gw.pcf.WC7AuditDetailsPanelSetUIHelper.getClassCodeDescription_TDIC(wcLine,aClassCode))
D:\Users\SouravB\Downloads\base-v2\modules\configuration\generated\pcfc\expressions\AuditDetailsPanelSet_WC7WorkersCompExpressions.gs:[720,99] error: Could not resolve symbol for : wcLine [line:720 col:99] in
line 719:       var totalAuditedBasis : Integer = (gw.pcf.WC7AuditDetailsPanelSetUIHelper.getTotalAuditedBasis_TDIC(wcLine, aClassCode, ratingPeriod))
line 720: var classCodeDesc : String = (gw.pcf.WC7AuditDetailsPanelSetUIHelper.getClassCodeDescription_TDIC(wcLine,aClassCode))
line 721: return totalAuditedBasis
D:\Users\SouravB\Downloads\base-v2\modules\configuration\generated\pcfc\expressions\AuditDetailsPanelSet_WC7WorkersCompExpressions.gs:[731,72] error: Could not resolve symbol for : wcLine [line:731 col:72] in
line 730:     function value_70 () : java.lang.String[] {
line 731:       return gw.pcf.WC7AuditDetailsPanelSetUIHelper.getClassCodes_TDIC(wcLine)
line 732:     }
D:\Users\SouravB\Downloads\base-v2\modules\configuration\generated\pcfc\expressions\AuditDetailsPanelSet_WC7WorkersCompExpressions.gs:[1009,91] error: Could not resolve symbol for : wcLine [line:1009 col:91] in
line 1008:     function value_208 () : java.util.List<entity.WC7SupplDiseaseExposure> {
line 1009:       return gw.pcf.WC7AuditDetailsPanelSetUIHelper.getSupplementaryDiseaseInJurisdiction(wcLine, ratingPeriod)
line 1010:     }
D:\Users\SouravB\Downloads\base-v2\modules\configuration\generated\pcfc\expressions\AuditDetailsPanelSet_WC7WorkersCompExpressions.gs:[1066,83] error: Could not resolve symbol for : wcLine [line:1066 col:83] in
line 1065:     function value_235 () : java.util.List<entity.WC7AtomicEnergyExposure> {
line 1066:       return gw.pcf.WC7AuditDetailsPanelSetUIHelper.getAtomicEnergyInJurisdiction(wcLine, ratingPeriod)
line 1067:     }
D:\Users\SouravB\Downloads\base-v2\modules\configuration\generated\pcfc\expressions\AuditDetailsPanelSet_WC7WorkersCompExpressions.gs:[1088,108] error: Could not resolve symbol for : wcLine [line:1088 col:108] in
line 1087:     function initialValue_10 () : java.util.HashMap<gw.lob.wc7.rating.WC7RatingPeriod, java.util.List<entity.WC7WaiverOfSubro>> {
line 1088:       return gw.pcf.WC7AuditDetailsPanelSetUIHelper.getSpecificWaiverOfSubroExposureAcrossAllRatingPeriods(wcLine, ratingPeriods)
line 1089:     }
D:\Users\SouravB\Downloads\base-v2\modules\configuration\generated\pcfc\expressions\AuditDetailsPanelSet_WC7WorkersCompExpressions.gs:[1093,107] error: Could not resolve symbol for : wcLine [line:1093 col:107] in
line 1092:     function initialValue_11 () : java.util.HashMap<gw.lob.wc7.rating.WC7RatingPeriod, java.util.List<entity.WC7SupplDiseaseExposure>> {
line 1093:       return gw.pcf.WC7AuditDetailsPanelSetUIHelper.getSupplementaryDiseaseExposureAcrossAllRatingPeriods(wcLine, ratingPeriods)
line 1094:     }
D:\Users\SouravB\Downloads\base-v2\modules\configuration\generated\pcfc\expressions\AuditDetailsPanelSet_WC7WorkersCompExpressions.gs:[1098,99] error: Could not resolve symbol for : wcLine [line:1098 col:99] in
line 1097:     function initialValue_12 () : java.util.HashMap<gw.lob.wc7.rating.WC7RatingPeriod, java.util.List<entity.WC7AtomicEnergyExposure>> {
line 1098:       return gw.pcf.WC7AuditDetailsPanelSetUIHelper.getAtomicEnergyExposureAcrossAllRatingPeriods(wcLine, ratingPeriods)
line 1099:     }
D:\Users\SouravB\Downloads\base-v2\modules\configuration\generated\pcfc\expressions\AuditDetailsPanelSet_WC7WorkersCompExpressions.gs:[1113,95] error: Could not resolve symbol for : wcLine [line:1113 col:95] in
line 1112:     function initialValue_7 () : java.util.HashMap<gw.lob.wc7.rating.WC7RatingPeriod, java.util.List<entity.WC7CoveredEmployee>> {
line 1113:       return gw.pcf.WC7AuditDetailsPanelSetUIHelper.getCoveredEmployeesAcrossAllRatingPeriods(wcLine, ratingPeriods)
line 1114:     }
D:\Users\SouravB\Downloads\base-v2\modules\configuration\generated\pcfc\expressions\AuditDetailsPanelSet_WC7WorkersCompExpressions.gs:[1118,98] error: Could not resolve symbol for : wcLine [line:1118 col:98] in
line 1117:     function initialValue_8 () : java.util.HashMap<gw.lob.wc7.rating.WC7RatingPeriod, java.util.List<entity.WC7FedCoveredEmployee>> {
line 1118:       return gw.pcf.WC7AuditDetailsPanelSetUIHelper.getFedCoveredEmployeesAcrossAllRatingPeriods(wcLine, ratingPeriods)
line 1119:     }
D:\Users\SouravB\Downloads\base-v2\modules\configuration\generated\pcfc\expressions\AuditDetailsPanelSet_WC7WorkersCompExpressions.gs:[1123,103] error: Could not resolve symbol for : wcLine [line:1123 col:103] in
line 1122:     function initialValue_9 () : java.util.HashMap<gw.lob.wc7.rating.WC7RatingPeriod, java.util.List<entity.WC7MaritimeCoveredEmployee>> {
line 1123:       return gw.pcf.WC7AuditDetailsPanelSetUIHelper.getMaritimeCoveredEmployeesAcrossAllRatingPeriods(wcLine, ratingPeriods)
line 1124:     }
D:\Users\SouravB\Downloads\base-v2\modules\configuration\generated\pcfc\expressions\AuditDetailsPanelSet_WC7WorkersCompExpressions.gs:[1129,96] error: Could not resolve symbol for : wcLine [line:1129 col:96] in
line 1128:         ratingPeriods = jurisdiction.InForceRatingPeriods.toTypedArray();
line 1129:   covEmpMap = gw.pcf.WC7AuditDetailsPanelSetUIHelper.getCoveredEmployeesAcrossAllRatingPeriods(wcLine, ratingPeriods);
line 1130:   fedCovEmpMap = gw.pcf.WC7AuditDetailsPanelSetUIHelper.getFedCoveredEmployeesAcrossAllRatingPeriods(wcLine, ratingPeriods);
D:\Users\SouravB\Downloads\base-v2\modules\configuration\generated\pcfc\expressions\AuditDetailsPanelSet_WC7WorkersCompExpressions.gs:[1130,102] error: Could not resolve symbol for : wcLine [line:1130 col:102] in
line 1129:   covEmpMap = gw.pcf.WC7AuditDetailsPanelSetUIHelper.getCoveredEmployeesAcrossAllRatingPeriods(wcLine, ratingPeriods);
line 1130:   fedCovEmpMap = gw.pcf.WC7AuditDetailsPanelSetUIHelper.getFedCoveredEmployeesAcrossAllRatingPeriods(wcLine, ratingPeriods);
line 1131:   maritimeCovEmpMap = gw.pcf.WC7AuditDetailsPanelSetUIHelper.getMaritimeCoveredEmployeesAcrossAllRatingPeriods(wcLine, ratingPeriods);
D:\Users\SouravB\Downloads\base-v2\modules\configuration\generated\pcfc\expressions\AuditDetailsPanelSet_WC7WorkersCompExpressions.gs:[1131,112] error: Could not resolve symbol for : wcLine [line:1131 col:112] in
line 1130:   fedCovEmpMap = gw.pcf.WC7AuditDetailsPanelSetUIHelper.getFedCoveredEmployeesAcrossAllRatingPeriods(wcLine, ratingPeriods);
line 1131:   maritimeCovEmpMap = gw.pcf.WC7AuditDetailsPanelSetUIHelper.getMaritimeCoveredEmployeesAcrossAllRatingPeriods(wcLine, ratingPeriods);
line 1132:   specificWaiverOfSubroMap = gw.pcf.WC7AuditDetailsPanelSetUIHelper.getSpecificWaiverOfSubroExposureAcrossAllRatingPeriods(wcLine, ratingPeriods);
D:\Users\SouravB\Downloads\base-v2\modules\configuration\generated\pcfc\expressions\AuditDetailsPanelSet_WC7WorkersCompExpressions.gs:[1132,124] error: Could not resolve symbol for : wcLine [line:1132 col:124] in
line 1131:   maritimeCovEmpMap = gw.pcf.WC7AuditDetailsPanelSetUIHelper.getMaritimeCoveredEmployeesAcrossAllRatingPeriods(wcLine, ratingPeriods);
line 1132:   specificWaiverOfSubroMap = gw.pcf.WC7AuditDetailsPanelSetUIHelper.getSpecificWaiverOfSubroExposureAcrossAllRatingPeriods(wcLine, ratingPeriods);
line 1133:   supplDiseaseCovEmpMap = gw.pcf.WC7AuditDetailsPanelSetUIHelper.getSupplementaryDiseaseExposureAcrossAllRatingPeriods(wcLine, ratingPeriods);
D:\Users\SouravB\Downloads\base-v2\modules\configuration\generated\pcfc\expressions\AuditDetailsPanelSet_WC7WorkersCompExpressions.gs:[1133,120] error: Could not resolve symbol for : wcLine [line:1133 col:120] in
line 1132:   specificWaiverOfSubroMap = gw.pcf.WC7AuditDetailsPanelSetUIHelper.getSpecificWaiverOfSubroExposureAcrossAllRatingPeriods(wcLine, ratingPeriods);
line 1133:   supplDiseaseCovEmpMap = gw.pcf.WC7AuditDetailsPanelSetUIHelper.getSupplementaryDiseaseExposureAcrossAllRatingPeriods(wcLine, ratingPeriods);
line 1134:   atomicEnergyCovEmpMap = gw.pcf.WC7AuditDetailsPanelSetUIHelper.getAtomicEnergyExposureAcrossAllRatingPeriods(wcLine, ratingPeriods);
D:\Users\SouravB\Downloads\base-v2\modules\configuration\generated\pcfc\expressions\AuditDetailsPanelSet_WC7WorkersCompExpressions.gs:[1134,112] error: Could not resolve symbol for : wcLine [line:1134 col:112] in
line 1133:   supplDiseaseCovEmpMap = gw.pcf.WC7AuditDetailsPanelSetUIHelper.getSupplementaryDiseaseExposureAcrossAllRatingPeriods(wcLine, ratingPeriods);
line 1134:   atomicEnergyCovEmpMap = gw.pcf.WC7AuditDetailsPanelSetUIHelper.getAtomicEnergyExposureAcrossAllRatingPeriods(wcLine, ratingPeriods);
line 1135:   coverageInputSetHelper = new gw.pcf.WC7CoverageInputSetUIHelper();
D:\Users\SouravB\Downloads\base-v2\modules\configuration\generated\pcfc\expressions\AuditPremiumDetailsPanelSet_WC7LineExpressions.gs:[31,14] error: No property descriptor found for property, WC7Line, on class, entity.PolicyPeriod [line:31 col:14] in
line 30:     function initialValue_2 () : java.util.Set<entity.WC7Cost> {
line 31:       return period.WC7Line.Costs.cast( WC7Cost )
line 32:     }
D:\Users\SouravB\Downloads\base-v2\modules\configuration\generated\pcfc\expressions\AuditPremiumDetailsPanelSet_WC7LineExpressions.gs:[41,14] error: No property descriptor found for property, WC7Line, on class, entity.PolicyPeriod [line:41 col:14] in
line 40:     function initialValue_4 () : entity.WC7Jurisdiction[] {
line 41:       return period.WC7Line.RepresentativeJurisdictions
line 42:     }
D:\Users\SouravB\Downloads\base-v2\modules\configuration\generated\pcfc\expressions\AuditProcessingInputSet_FinalAuditExpressions.gs:[23,135] error: No property descriptor found for property, WC7LineExists, on class, entity.PolicyPeriod [line:23 col:135] in
line 22:     function available_18 () : java.lang.Boolean {
line 23:       return (audit.AuditInformation.ActualAuditMethod == typekey.AuditMethod.TC_ESTIMATED) and audit.AuditInformation.IsComplete and audit.PolicyPeriod.WC7LineExists
line 24:     }
D:\Users\SouravB\Downloads\base-v2\modules\configuration\generated\pcfc\expressions\AuditProcessingInputSet_FinalAuditExpressions.gs:[33,18] error: No property descriptor found for property, WC7LineExists, on class, entity.PolicyPeriod [line:33 col:18] in
line 32:     function available_60 () : java.lang.Boolean {
line 33:       return not audit.PolicyPeriod.WC7LineExists
line 34:     }
D:\Users\SouravB\Downloads\base-v2\modules\configuration\generated\pcfc\expressions\AuditProcessingInputSet_FinalAuditExpressions.gs:[33,18] error: The type "ErrorType" cannot be converted to "boolean" [line:33 col:18] in
line 32:     function available_60 () : java.lang.Boolean {
line 33:       return not audit.PolicyPeriod.WC7LineExists
line 34:     }
D:\Users\SouravB\Downloads\base-v2\modules\configuration\generated\pcfc\expressions\AuditProcessingInputSet_FinalAuditExpressions.gs:[38,14] error: No property descriptor found for property, WC7LineExists, on class, entity.PolicyPeriod [line:38 col:14] in
line 37:     function available_67 () : java.lang.Boolean {
line 38:       return audit.PolicyPeriod.WC7LineExists and not (audit.AuditInformation.ActualAuditMethod == typekey.AuditMethod.TC_ESTIMATED)
line 39:     }
D:\Users\SouravB\Downloads\base-v2\modules\configuration\generated\pcfc\expressions\AuditProcessingInputSet_FinalAuditExpressions.gs:[43,14] error: No property descriptor found for property, WC7LineExists, on class, entity.PolicyPeriod [line:43 col:14] in
line 42:     function available_78 () : java.lang.Boolean {
line 43:       return audit.PolicyPeriod.WC7LineExists and (audit.AuditInformation.ActualAuditMethod == typekey.AuditMethod.TC_ESTIMATED)
line 44:     }
D:\Users\SouravB\Downloads\base-v2\modules\configuration\generated\pcfc\expressions\AuditWizard_SummaryScreenExpressions.gs:[26,14] error: No property descriptor found for property, WC7LineExists, on class, entity.PolicyPeriod [line:26 col:14] in
line 25:     function available_40 () : java.lang.Boolean {
line 26:       return policyPeriod.WC7LineExists
line 27:     }
D:\Users\SouravB\Downloads\base-v2\modules\configuration\generated\pcfc\expressions\AuditWizard_SummaryScreenExpressions.gs:[255,18] error: No property descriptor found for property, WC7LineExists, on class, entity.PolicyPeriod [line:255 col:18] in
line 254:     function visible_33 () : java.lang.Boolean {
line 255:       return not policyPeriod.WC7LineExists
line 256:     }
D:\Users\SouravB\Downloads\base-v2\modules\configuration\generated\pcfc\expressions\AuditWizard_SummaryScreenExpressions.gs:[255,18] error: The type "ErrorType" cannot be converted to "boolean" [line:255 col:18] in
line 254:     function visible_33 () : java.lang.Boolean {
line 255:       return not policyPeriod.WC7LineExists
line 256:     }
D:\Users\SouravB\Downloads\base-v2\modules\configuration\generated\pcfc\expressions\BOPBuildingPopupExpressions.gs:[210,15] error: No property descriptor found for property, BOPDentalGenLiabilityCov_TDICExists, on class, entity.BOPBuilding [line:210 col:15] in
line 209:     function visible_20 () : java.lang.Boolean {
line 210:       return (building.BOPDentalGenLiabilityCov_TDICExists || building.BOPBuildingOwnersLiabCov_TDICExists) && !(quoteType == QuoteType.TC_QUICK)
line 211:     }
D:\Users\SouravB\Downloads\base-v2\modules\configuration\generated\pcfc\expressions\BOPBuildingPopupExpressions.gs:[210,63] error: No property descriptor found for property, BOPBuildingOwnersLiabCov_TDICExists, on class, entity.BOPBuilding [line:210 col:63] in
line 209:     function visible_20 () : java.lang.Boolean {
line 210:       return (building.BOPDentalGenLiabilityCov_TDICExists || building.BOPBuildingOwnersLiabCov_TDICExists) && !(quoteType == QuoteType.TC_QUICK)
line 211:     }
D:\Users\SouravB\Downloads\base-v2\modules\configuration\generated\pcfc\expressions\BOPCoverageCostLVExpressions.gs:[79,39] error: Expecting a type name. [line:79 col:39] in
line 78:     
line 79:     property get bopScreenHelper () : tdic.web.pcf.helper.BOPQuoteScreenHelper {
line 80:       return getVariableValue("bopScreenHelper", 0) as tdic.web.pcf.helper.BOPQuoteScreenHelper
D:\Users\SouravB\Downloads\base-v2\modules\configuration\generated\pcfc\expressions\BOPCoverageCostLVExpressions.gs:[79,39] error: No type BOPQuoteScreenHelper found in package tdic.web.pcf.helper [line:79 col:39] in
line 78:     
line 79:     property get bopScreenHelper () : tdic.web.pcf.helper.BOPQuoteScreenHelper {
line 80:       return getVariableValue("bopScreenHelper", 0) as tdic.web.pcf.helper.BOPQuoteScreenHelper
D:\Users\SouravB\Downloads\base-v2\modules\configuration\generated\pcfc\expressions\BOPCoverageCostLVExpressions.gs:[80,56] error: Expecting a type name. [line:80 col:56] in
line 79:     property get bopScreenHelper () : tdic.web.pcf.helper.BOPQuoteScreenHelper {
line 80:       return getVariableValue("bopScreenHelper", 0) as tdic.web.pcf.helper.BOPQuoteScreenHelper
line 81:     }
D:\Users\SouravB\Downloads\base-v2\modules\configuration\generated\pcfc\expressions\BOPCoverageCostLVExpressions.gs:[80,56] error: No type BOPQuoteScreenHelper found in package tdic.web.pcf.helper [line:80 col:56] in
line 79:     property get bopScreenHelper () : tdic.web.pcf.helper.BOPQuoteScreenHelper {
line 80:       return getVariableValue("bopScreenHelper", 0) as tdic.web.pcf.helper.BOPQuoteScreenHelper
line 81:     }
D:\Users\SouravB\Downloads\base-v2\modules\configuration\generated\pcfc\expressions\BOPCoverageCostLVExpressions.gs:[83,43] error: Expecting a type name. [line:83 col:43] in
line 82:     
line 83:     property set bopScreenHelper ($arg :  tdic.web.pcf.helper.BOPQuoteScreenHelper) {
line 84:       setVariableValue("bopScreenHelper", 0, $arg)
D:\Users\SouravB\Downloads\base-v2\modules\configuration\generated\pcfc\expressions\BOPCoverageCostLVExpressions.gs:[83,43] error: No type BOPQuoteScreenHelper found in package tdic.web.pcf.helper [line:83 col:43] in
line 82:     
line 83:     property set bopScreenHelper ($arg :  tdic.web.pcf.helper.BOPQuoteScreenHelper) {
line 84:       setVariableValue("bopScreenHelper", 0, $arg)
D:\Users\SouravB\Downloads\base-v2\modules\configuration\generated\pcfc\expressions\BOPCoverageCostLVExpressions.gs:[84,46] error: Could not resolve symbol for : $arg [line:84 col:46] in
line 83:     property set bopScreenHelper ($arg :  tdic.web.pcf.helper.BOPQuoteScreenHelper) {
line 84:       setVariableValue("bopScreenHelper", 0, $arg)
line 85:     }
D:\Users\SouravB\Downloads\base-v2\modules\configuration\generated\pcfc\expressions\BOPCoverageCostLVExpressions.gs:[131,14] error: Could not resolve symbol for : bopScreenHelper [line:131 col:14] in
line 130:     function value_20 () : java.lang.String {
line 131:       return bopScreenHelper.getCoverageTermDisplayName(theCoverage, covTerm).leftPad( 7 )
line 132:     }
D:\Users\SouravB\Downloads\base-v2\modules\configuration\generated\pcfc\expressions\BOPCoverageCostLVExpressions.gs:[194,14] error: Could not resolve symbol for : bopScreenHelper [line:194 col:14] in
line 193:     function value_29 () : gw.api.domain.covterm.CovTerm[] {
line 194:       return bopScreenHelper.hideBuildingCovTermsToDisplay(theCoverage)
line 195:     }
D:\Users\SouravB\Downloads\base-v2\modules\configuration\generated\pcfc\expressions\BOPCoverageCostLVExpressions.gs:[199,14] error: You must explicitly coerce java.lang.Object to java.lang.String using the as keyword. [line:199 col:14] in
line 198:     function value_30 () : java.lang.String {
line 199:       return theCoverage != null ? bopScreenHelper.getCoverageDisplayName(theCoverage) : cost.DisplayName
line 200:     }
D:\Users\SouravB\Downloads\base-v2\modules\configuration\generated\pcfc\expressions\BOPCoverageCostLVExpressions.gs:[199,36] error: Could not resolve symbol for : bopScreenHelper [line:199 col:36] in
line 198:     function value_30 () : java.lang.String {
line 199:       return theCoverage != null ? bopScreenHelper.getCoverageDisplayName(theCoverage) : cost.DisplayName
line 200:     }
D:\Users\SouravB\Downloads\base-v2\modules\configuration\generated\pcfc\expressions\BOPLocationBuildingsPanelSetExpressions.gs:[429,15] error: No property descriptor found for property, BOPDentalGenLiabilityCov_TDICExists, on class, entity.BOPBuilding [line:429 col:15] in
line 428:     function visible_49 () : java.lang.Boolean {
line 429:       return (selectedBuilding.BOPDentalGenLiabilityCov_TDICExists || selectedBuilding.BOPBuildingOwnersLiabCov_TDICExists) && !(quoteType == QuoteType.TC_QUICK)
line 430:     }
D:\Users\SouravB\Downloads\base-v2\modules\configuration\generated\pcfc\expressions\BOPLocationBuildingsPanelSetExpressions.gs:[429,71] error: No property descriptor found for property, BOPBuildingOwnersLiabCov_TDICExists, on class, entity.BOPBuilding [line:429 col:71] in
line 428:     function visible_49 () : java.lang.Boolean {
line 429:       return (selectedBuilding.BOPDentalGenLiabilityCov_TDICExists || selectedBuilding.BOPBuildingOwnersLiabCov_TDICExists) && !(quoteType == QuoteType.TC_QUICK)
line 430:     }
D:\Users\SouravB\Downloads\base-v2\modules\configuration\generated\pcfc\expressions\CancellationWizardInfoBarExpressions.gs:[117,15] error: No property descriptor found for property, WC7LineExists, on class, entity.PolicyPeriod [line:117 col:15] in
line 116:           }
line 117:           if (policyPeriod.WC7LineExists) {
line 118:             return "Workers' Compensation"
D:\Users\SouravB\Downloads\base-v2\modules\configuration\generated\pcfc\expressions\CancellationWizard_MultiLine_QuoteScreen_CommercialPackageExpressions.gs:[146,14] error: No property descriptor found for property, WC7LineExists, on class, entity.PolicyPeriod [line:146 col:14] in
line 145:     function visible_20 () : java.lang.Boolean {
line 146:       return policyPeriod.WC7LineExists
line 147:     }
D:\Users\SouravB\Downloads\base-v2\modules\configuration\generated\pcfc\expressions\CancellationWizard_MultiLine_QuoteScreen_defaultExpressions.gs:[146,14] error: No property descriptor found for property, WC7LineExists, on class, entity.PolicyPeriod [line:146 col:14] in
line 145:     function visible_20 () : java.lang.Boolean {
line 146:       return policyPeriod.WC7LineExists
line 147:     }
D:\Users\SouravB\Downloads\base-v2\modules\configuration\generated\pcfc\expressions\CancellationWizard_QuoteScreenExpressions.gs:[377,14] error: No property descriptor found for property, WC7LineExists, on class, entity.PolicyPeriod [line:377 col:14] in
line 376:     function visible_22 () : java.lang.Boolean {
line 377:       return policyPeriod.WC7LineExists
line 378:     }
D:\Users\SouravB\Downloads\base-v2\modules\configuration\generated\pcfc\expressions\ChangeRequestsListViewTileExpressions.gs:[51,14] error: No property descriptor found for property, WC7LineExists, on class, entity.PolicyPeriod [line:51 col:14] in
line 50:     function sortValue_10 (job :  entity.Job) : java.lang.Object {
line 51:       return job.Policy.LatestPeriod.WC7LineExists ? "Workers' Compensation" : job.Policy.LatestPeriod.Offering.DisplayName
line 52:     }
D:\Users\SouravB\Downloads\base-v2\modules\configuration\generated\pcfc\expressions\ChangeRequestsListViewTileExpressions.gs:[51,14] error: boolean expected. [line:51 col:14] in
line 50:     function sortValue_10 (job :  entity.Job) : java.lang.Object {
line 51:       return job.Policy.LatestPeriod.WC7LineExists ? "Workers' Compensation" : job.Policy.LatestPeriod.Offering.DisplayName
line 52:     }
D:\Users\SouravB\Downloads\base-v2\modules\configuration\generated\pcfc\expressions\ChangeRequestsListViewTileExpressions.gs:[235,14] error: No property descriptor found for property, WC7LineExists, on class, entity.PolicyPeriod [line:235 col:14] in
line 234:     function value_44 () : java.lang.String {
line 235:       return job.Policy.LatestPeriod.WC7LineExists ? "Workers' Compensation" : job.Policy.LatestPeriod.Offering.DisplayName
line 236:     }
D:\Users\SouravB\Downloads\base-v2\modules\configuration\generated\pcfc\expressions\ChangeRequestsListViewTileExpressions.gs:[235,14] error: boolean expected. [line:235 col:14] in
line 234:     function value_44 () : java.lang.String {
line 235:       return job.Policy.LatestPeriod.WC7LineExists ? "Workers' Compensation" : job.Policy.LatestPeriod.Offering.DisplayName
line 236:     }

Error threshold of 100 exceeded; aborting compilation.
gosuc completed with 104 errors. Warnings were disabled.



FAILURE: Build failed with an exception.

* What went wrong:
Execution failed for task ':modules:configuration:compileGosu'.
> Compilation failed with exit code 1; see the compiler error output for details.

* Try:
Run with --info or --debug option to get more log output. Run with --scan to get full insights.

* Exception is:
org.gradle.api.tasks.TaskExecutionException: Execution failed for task ':modules:configuration:compileGosu'.
	at org.gradle.api.internal.tasks.execution.ExecuteActionsTaskExecuter.lambda$executeIfValid$1(ExecuteActionsTaskExecuter.java:187)
	at org.gradle.internal.Try$Failure.ifSuccessfulOrElse(Try.java:263)
	at org.gradle.api.internal.tasks.execution.ExecuteActionsTaskExecuter.executeIfValid(ExecuteActionsTaskExecuter.java:185)
	at org.gradle.api.internal.tasks.execution.ExecuteActionsTaskExecuter.execute(ExecuteActionsTaskExecuter.java:166)
	at org.gradle.api.internal.tasks.execution.CleanupStaleOutputsExecuter.execute(CleanupStaleOutputsExecuter.java:109)
	at org.gradle.api.internal.tasks.execution.FinalizePropertiesTaskExecuter.execute(FinalizePropertiesTaskExecuter.java:46)
	at org.gradle.api.internal.tasks.execution.ResolveTaskExecutionModeExecuter.execute(ResolveTaskExecutionModeExecuter.java:62)
	at org.gradle.api.internal.tasks.execution.SkipTaskWithNoActionsExecuter.execute(SkipTaskWithNoActionsExecuter.java:57)
	at org.gradle.api.internal.tasks.execution.SkipOnlyIfTaskExecuter.execute(SkipOnlyIfTaskExecuter.java:56)
	at org.gradle.api.internal.tasks.execution.CatchExceptionTaskExecuter.execute(CatchExceptionTaskExecuter.java:36)
	at org.gradle.api.internal.tasks.execution.EventFiringTaskExecuter$1.executeTask(EventFiringTaskExecuter.java:77)
	at org.gradle.api.internal.tasks.execution.EventFiringTaskExecuter$1.call(EventFiringTaskExecuter.java:55)
	at org.gradle.api.internal.tasks.execution.EventFiringTaskExecuter$1.call(EventFiringTaskExecuter.java:52)
	at org.gradle.internal.operations.DefaultBuildOperationExecutor$CallableBuildOperationWorker.execute(DefaultBuildOperationExecutor.java:416)
	at org.gradle.internal.operations.DefaultBuildOperationExecutor$CallableBuildOperationWorker.execute(DefaultBuildOperationExecutor.java:406)
	at org.gradle.internal.operations.DefaultBuildOperationExecutor$1.execute(DefaultBuildOperationExecutor.java:165)
	at org.gradle.internal.operations.DefaultBuildOperationExecutor.execute(DefaultBuildOperationExecutor.java:250)
	at org.gradle.internal.operations.DefaultBuildOperationExecutor.execute(DefaultBuildOperationExecutor.java:158)
	at org.gradle.internal.operations.DefaultBuildOperationExecutor.call(DefaultBuildOperationExecutor.java:102)
	at org.gradle.internal.operations.DelegatingBuildOperationExecutor.call(DelegatingBuildOperationExecutor.java:36)
	at org.gradle.api.internal.tasks.execution.EventFiringTaskExecuter.execute(EventFiringTaskExecuter.java:52)
	at org.gradle.execution.plan.LocalTaskNodeExecutor.execute(LocalTaskNodeExecutor.java:41)
	at org.gradle.execution.taskgraph.DefaultTaskExecutionGraph$InvokeNodeExecutorsAction.execute(DefaultTaskExecutionGraph.java:374)
	at org.gradle.execution.taskgraph.DefaultTaskExecutionGraph$InvokeNodeExecutorsAction.execute(DefaultTaskExecutionGraph.java:361)
	at org.gradle.execution.taskgraph.DefaultTaskExecutionGraph$BuildOperationAwareExecutionAction.execute(DefaultTaskExecutionGraph.java:354)
	at org.gradle.execution.taskgraph.DefaultTaskExecutionGraph$BuildOperationAwareExecutionAction.execute(DefaultTaskExecutionGraph.java:340)
	at org.gradle.execution.plan.DefaultPlanExecutor$ExecutorWorker.lambda$run$0(DefaultPlanExecutor.java:127)
	at org.gradle.execution.plan.DefaultPlanExecutor$ExecutorWorker.execute(DefaultPlanExecutor.java:191)
	at org.gradle.execution.plan.DefaultPlanExecutor$ExecutorWorker.executeNextNode(DefaultPlanExecutor.java:182)
	at org.gradle.execution.plan.DefaultPlanExecutor$ExecutorWorker.run(DefaultPlanExecutor.java:124)
	at org.gradle.internal.concurrent.ExecutorPolicy$CatchAndRecordFailures.onExecute(ExecutorPolicy.java:64)
	at org.gradle.internal.concurrent.ManagedExecutorImpl$1.run(ManagedExecutorImpl.java:48)
	at org.gradle.internal.concurrent.ThreadFactoryImpl$ManagedThreadRunnable.run(ThreadFactoryImpl.java:56)
Caused by: org.gosulang.gradle.tasks.compile.GosuCompilationFailedException: Compilation failed with exit code 1; see the compiler error output for details.
	at org.gosulang.gradle.tasks.compile.CommandLineGosuCompiler.execute(CommandLineGosuCompiler.java:83)
	at org.gosulang.gradle.tasks.compile.GosuCompile.compile(GosuCompile.java:58)
	at java.base/jdk.internal.reflect.NativeMethodAccessorImpl.invoke0(Native Method)
	at java.base/jdk.internal.reflect.NativeMethodAccessorImpl.invoke(NativeMethodAccessorImpl.java:62)
	at java.base/jdk.internal.reflect.DelegatingMethodAccessorImpl.invoke(DelegatingMethodAccessorImpl.java:43)
	at org.gradle.internal.reflect.JavaMethod.invoke(JavaMethod.java:104)
	at org.gradle.api.internal.project.taskfactory.StandardTaskAction.doExecute(StandardTaskAction.java:49)
	at org.gradle.api.internal.project.taskfactory.StandardTaskAction.execute(StandardTaskAction.java:42)
	at org.gradle.api.internal.project.taskfactory.StandardTaskAction.execute(StandardTaskAction.java:28)
	at org.gradle.api.internal.AbstractTask$TaskActionWrapper.execute(AbstractTask.java:721)
	at org.gradle.api.internal.AbstractTask$TaskActionWrapper.execute(AbstractTask.java:688)
	at org.gradle.api.internal.tasks.execution.ExecuteActionsTaskExecuter$3.run(ExecuteActionsTaskExecuter.java:539)
	at org.gradle.internal.operations.DefaultBuildOperationExecutor$RunnableBuildOperationWorker.execute(DefaultBuildOperationExecutor.java:402)
	at org.gradle.internal.operations.DefaultBuildOperationExecutor$RunnableBuildOperationWorker.execute(DefaultBuildOperationExecutor.java:394)
	at org.gradle.internal.operations.DefaultBuildOperationExecutor$1.execute(DefaultBuildOperationExecutor.java:165)
	at org.gradle.internal.operations.DefaultBuildOperationExecutor.execute(DefaultBuildOperationExecutor.java:250)
	at org.gradle.internal.operations.DefaultBuildOperationExecutor.execute(DefaultBuildOperationExecutor.java:158)
	at org.gradle.internal.operations.DefaultBuildOperationExecutor.run(DefaultBuildOperationExecutor.java:92)
	at org.gradle.internal.operations.DelegatingBuildOperationExecutor.run(DelegatingBuildOperationExecutor.java:31)
	at org.gradle.api.internal.tasks.execution.ExecuteActionsTaskExecuter.executeAction(ExecuteActionsTaskExecuter.java:524)
	at org.gradle.api.internal.tasks.execution.ExecuteActionsTaskExecuter.executeActions(ExecuteActionsTaskExecuter.java:507)
	at org.gradle.api.internal.tasks.execution.ExecuteActionsTaskExecuter.access$300(ExecuteActionsTaskExecuter.java:109)
	at org.gradle.api.internal.tasks.execution.ExecuteActionsTaskExecuter$TaskExecution.executeWithPreviousOutputFiles(ExecuteActionsTaskExecuter.java:258)
	at org.gradle.api.internal.tasks.execution.ExecuteActionsTaskExecuter$TaskExecution.execute(ExecuteActionsTaskExecuter.java:247)
	at org.gradle.internal.execution.steps.ExecuteStep.lambda$execute$1(ExecuteStep.java:33)
	at org.gradle.internal.execution.steps.ExecuteStep.execute(ExecuteStep.java:33)
	at org.gradle.internal.execution.steps.ExecuteStep.execute(ExecuteStep.java:26)
	at org.gradle.internal.execution.steps.CleanupOutputsStep.execute(CleanupOutputsStep.java:63)
	at org.gradle.internal.execution.steps.CleanupOutputsStep.execute(CleanupOutputsStep.java:35)
	at org.gradle.internal.execution.steps.ResolveInputChangesStep.execute(ResolveInputChangesStep.java:49)
	at org.gradle.internal.execution.steps.ResolveInputChangesStep.execute(ResolveInputChangesStep.java:34)
	at org.gradle.internal.execution.steps.CancelExecutionStep.execute(CancelExecutionStep.java:43)
	at org.gradle.internal.execution.steps.TimeoutStep.executeWithoutTimeout(TimeoutStep.java:73)
	at org.gradle.internal.execution.steps.TimeoutStep.execute(TimeoutStep.java:54)
	at org.gradle.internal.execution.steps.CatchExceptionStep.execute(CatchExceptionStep.java:34)
	at org.gradle.internal.execution.steps.CreateOutputsStep.execute(CreateOutputsStep.java:44)
	at org.gradle.internal.execution.steps.SnapshotOutputsStep.execute(SnapshotOutputsStep.java:54)
	at org.gradle.internal.execution.steps.SnapshotOutputsStep.execute(SnapshotOutputsStep.java:38)
	at org.gradle.internal.execution.steps.CacheStep.executeWithoutCache(CacheStep.java:153)
	at org.gradle.internal.execution.steps.CacheStep.executeAndStoreInCache(CacheStep.java:129)
	at org.gradle.internal.execution.steps.CacheStep.lambda$executeWithCache$2(CacheStep.java:107)
	at org.gradle.internal.execution.steps.CacheStep.lambda$executeWithCache$3(CacheStep.java:107)
	at org.gradle.internal.Try$Success.map(Try.java:162)
	at org.gradle.internal.execution.steps.CacheStep.executeWithCache(CacheStep.java:76)
	at org.gradle.internal.execution.steps.CacheStep.execute(CacheStep.java:66)
	at org.gradle.internal.execution.steps.CacheStep.execute(CacheStep.java:41)
	at org.gradle.internal.execution.steps.BroadcastChangingOutputsStep.execute(BroadcastChangingOutputsStep.java:49)
	at org.gradle.internal.execution.steps.StoreExecutionStateStep.execute(StoreExecutionStateStep.java:44)
	at org.gradle.internal.execution.steps.StoreExecutionStateStep.execute(StoreExecutionStateStep.java:33)
	at org.gradle.internal.execution.steps.RecordOutputsStep.execute(RecordOutputsStep.java:38)
	at org.gradle.internal.execution.steps.RecordOutputsStep.execute(RecordOutputsStep.java:24)
	at org.gradle.internal.execution.steps.SkipUpToDateStep.executeBecause(SkipUpToDateStep.java:92)
	at org.gradle.internal.execution.steps.SkipUpToDateStep.lambda$execute$0(SkipUpToDateStep.java:85)
	at org.gradle.internal.execution.steps.SkipUpToDateStep.execute(SkipUpToDateStep.java:55)
	at org.gradle.internal.execution.steps.SkipUpToDateStep.execute(SkipUpToDateStep.java:39)
	at org.gradle.internal.execution.steps.ResolveChangesStep.execute(ResolveChangesStep.java:76)
	at org.gradle.internal.execution.steps.ResolveChangesStep.execute(ResolveChangesStep.java:37)
	at org.gradle.internal.execution.steps.legacy.MarkSnapshottingInputsFinishedStep.execute(MarkSnapshottingInputsFinishedStep.java:36)
	at org.gradle.internal.execution.steps.legacy.MarkSnapshottingInputsFinishedStep.execute(MarkSnapshottingInputsFinishedStep.java:26)
	at org.gradle.internal.execution.steps.ResolveCachingStateStep.execute(ResolveCachingStateStep.java:94)
	at org.gradle.internal.execution.steps.ResolveCachingStateStep.execute(ResolveCachingStateStep.java:49)
	at org.gradle.internal.execution.steps.CaptureStateBeforeExecutionStep.execute(CaptureStateBeforeExecutionStep.java:79)
	at org.gradle.internal.execution.steps.CaptureStateBeforeExecutionStep.execute(CaptureStateBeforeExecutionStep.java:53)
	at org.gradle.internal.execution.steps.ValidateStep.execute(ValidateStep.java:74)
	at org.gradle.internal.execution.steps.SkipEmptyWorkStep.lambda$execute$2(SkipEmptyWorkStep.java:78)
	at org.gradle.internal.execution.steps.SkipEmptyWorkStep.execute(SkipEmptyWorkStep.java:78)
	at org.gradle.internal.execution.steps.SkipEmptyWorkStep.execute(SkipEmptyWorkStep.java:34)
	at org.gradle.internal.execution.steps.legacy.MarkSnapshottingInputsStartedStep.execute(MarkSnapshottingInputsStartedStep.java:39)
	at org.gradle.internal.execution.steps.LoadExecutionStateStep.execute(LoadExecutionStateStep.java:40)
	at org.gradle.internal.execution.steps.LoadExecutionStateStep.execute(LoadExecutionStateStep.java:28)
	at org.gradle.internal.execution.impl.DefaultWorkExecutor.execute(DefaultWorkExecutor.java:33)
	at org.gradle.api.internal.tasks.execution.ExecuteActionsTaskExecuter.executeIfValid(ExecuteActionsTaskExecuter.java:174)
	... 30 more


* Get more help at https://help.gradle.org

Deprecated Gradle features were used in this build, making it incompatible with Gradle 7.0.
Use '--warning-mode all' to show the individual deprecation warnings.
See https://docs.gradle.org/6.0.1/userguide/command_line_interface.html#sec:command_line_warnings

BUILD FAILED in 5m 21s
12 actionable tasks: 8 executed, 4 up-to-date
2020-10-15T19:08:28.829-0400 [DEBUG] [org.gradle.launcher.daemon.server.exec.ExecuteBuild] The daemon has finished executing the build.
2020-10-15T19:08:28.840-0400 [DEBUG] [org.gradle.launcher.daemon.server.DaemonStateCoordinator] daemon stop has been requested. Sleeping until state changes.
2020-10-15T19:08:28.840-0400 [DEBUG] [org.gradle.launcher.daemon.server.DaemonStateCoordinator] Command execution: finished waiting for DaemonCommandExecution[command = Build{id=3de4fd1a-10ba-402e-ad0c-cb9e28aafd49, currentDir=D:\Users\SouravB\Downloads\base-v2}, connection = DefaultDaemonConnection: socket connection from /127.0.0.1:51121 to /127.0.0.1:51122]. Result org.gradle.launcher.daemon.server.DaemonStateCoordinator@77340f2 with state StopRequested
2020-10-15T19:08:28.840-0400 [DEBUG] [org.gradle.launcher.daemon.server.DaemonStateCoordinator] Command execution: completed DaemonCommandExecution[command = Build{id=3de4fd1a-10ba-402e-ad0c-cb9e28aafd49, currentDir=D:\Users\SouravB\Downloads\base-v2}, connection = DefaultDaemonConnection: socket connection from /127.0.0.1:51121 to /127.0.0.1:51122]
2020-10-15T19:08:28.841-0400 [DEBUG] [org.gradle.launcher.daemon.server.DaemonStateCoordinator] resetting idle timer
2020-10-15T19:08:28.841-0400 [DEBUG] [org.gradle.launcher.daemon.server.DaemonStateCoordinator] Marking daemon stopped due to command completed and stop requested. The daemon is running a build: false
2020-10-15T19:08:28.841-0400 [DEBUG] [org.gradle.launcher.daemon.server.DaemonStateCoordinator] daemon has stopped.
2020-10-15T19:08:28.841-0400 [DEBUG] [org.gradle.launcher.daemon.server.Daemon] stop() called on daemon
2020-10-15T19:08:28.841-0400 [DEBUG] [org.gradle.launcher.daemon.server.exec.ReturnResult] Daemon is dispatching the build result: Success[value=org.gradle.launcher.exec.BuildActionResult@d9f253d]
2020-10-15T19:08:28.841-0400 [INFO] [org.gradle.launcher.daemon.server.Daemon] Stop requested. Daemon is removing its presence from the registry...
2020-10-15T19:08:28.841-0400 [DEBUG] [org.gradle.launcher.daemon.server.SynchronizedDispatchConnection] thread 19: dispatching class org.gradle.launcher.daemon.protocol.Success
2020-10-15T19:08:28.841-0400 [DEBUG] [org.gradle.launcher.daemon.server.DaemonRegistryUpdater] Removing our presence to clients, eg. removing this address from the registry: [bb03c176-c0eb-4245-bd87-a2ab1824755b port:51121, addresses:[/127.0.0.1, /0:0:0:0:0:0:0:1]]
2020-10-15T19:08:28.842-0400 [DEBUG] [org.gradle.launcher.daemon.registry.PersistentDaemonRegistry] Removing daemon address: [bb03c176-c0eb-4245-bd87-a2ab1824755b port:51121, addresses:[/127.0.0.1, /0:0:0:0:0:0:0:1]]
2020-10-15T19:08:28.843-0400 [DEBUG] [org.gradle.cache.internal.DefaultFileLockManager] Waiting to acquire exclusive lock on daemon addresses registry.
2020-10-15T19:08:28.844-0400 [DEBUG] [org.gradle.cache.internal.DefaultFileLockManager] Lock acquired on daemon addresses registry.
2020-10-15T19:08:28.845-0400 [DEBUG] [org.gradle.cache.internal.DefaultFileLockManager] Releasing lock on daemon addresses registry.
2020-10-15T19:08:28.845-0400 [DEBUG] [org.gradle.launcher.daemon.server.DaemonRegistryUpdater] Address removed from registry.
2020-10-15T19:08:28.991-0400 [DEBUG] [org.gradle.launcher.daemon.server.DefaultIncomingConnectionHandler] Finishing executing command: Build{id=3de4fd1a-10ba-402e-ad0c-cb9e28aafd49, currentDir=D:\Users\SouravB\Downloads\base-v2}
2020-10-15T19:08:29.003-0400 [DEBUG] [org.gradle.launcher.daemon.server.SynchronizedDispatchConnection] thread 20: received class org.gradle.launcher.daemon.protocol.CloseInput
2020-10-15T19:08:29.003-0400 [DEBUG] [org.gradle.launcher.daemon.server.DefaultDaemonConnection] thread 20: Received IO message from client: org.gradle.launcher.daemon.protocol.CloseInput@7f0beab3
2020-10-15T19:08:29.003-0400 [DEBUG] [org.gradle.launcher.daemon.server.SynchronizedDispatchConnection] thread 20: received class org.gradle.launcher.daemon.protocol.Finished
2020-10-15T19:08:29.003-0400 [DEBUG] [org.gradle.launcher.daemon.server.DefaultDaemonConnection] thread 20: Received non-IO message from client: org.gradle.launcher.daemon.protocol.Finished@2e2c5b81
2020-10-15T19:08:29.003-0400 [DEBUG] [org.gradle.launcher.daemon.server.DefaultIncomingConnectionHandler] Received finished message: org.gradle.launcher.daemon.protocol.Finished@2e2c5b81
2020-10-15T19:08:29.004-0400 [DEBUG] [org.gradle.launcher.daemon.server.SynchronizedDispatchConnection] thread 19: stopping connection
2020-10-15T19:08:29.005-0400 [DEBUG] [org.gradle.internal.remote.internal.inet.SocketConnection] Discarding EOFException: java.io.EOFException
2020-10-15T19:08:29.005-0400 [DEBUG] [org.gradle.launcher.daemon.server.SynchronizedDispatchConnection] thread 20: received null
2020-10-15T19:08:29.005-0400 [DEBUG] [org.gradle.launcher.daemon.server.DefaultDaemonConnection] thread 20: Received end-of-input from client.
2020-10-15T19:08:29.006-0400 [DEBUG] [org.gradle.launcher.daemon.server.SynchronizedDispatchConnection] thread 19: stopping connection
2020-10-15T19:08:29.006-0400 [DEBUG] [org.gradle.workers.internal.WorkerDaemonClientsManager] Stopping 2 worker daemon(s).
2020-10-15T19:08:29.208-0400 [DEBUG] [org.gradle.process.internal.DefaultExecHandle] Changing state to: SUCCEEDED
2020-10-15T19:08:29.208-0400 [DEBUG] [org.gradle.process.internal.DefaultExecHandle] Process 'Gradle Worker Daemon 1' finished with exit value 0 (state: SUCCEEDED)
2020-10-15T19:08:29.283-0400 [DEBUG] [org.gradle.process.internal.DefaultExecHandle] Changing state to: SUCCEEDED
2020-10-15T19:08:29.283-0400 [DEBUG] [org.gradle.process.internal.DefaultExecHandle] Process 'Gradle Worker Daemon 2' finished with exit value 0 (state: SUCCEEDED)
2020-10-15T19:08:29.285-0400 [INFO] [org.gradle.workers.internal.WorkerDaemonClientsManager] Stopped 2 worker daemon(s).
2020-10-15T19:08:29.285-0400 [DEBUG] [org.gradle.cache.internal.LockOnDemandCrossProcessCacheAccess] Releasing file lock for jars (D:\Users\SouravB\Downloads\base-v2\gradle\cache\caches\jars-3)
2020-10-15T19:08:29.286-0400 [DEBUG] [org.gradle.cache.internal.DefaultFileLockManager] Releasing lock on jars (D:\Users\SouravB\Downloads\base-v2\gradle\cache\caches\jars-3).
2020-10-15T19:08:29.287-0400 [DEBUG] [org.gradle.cache.internal.DefaultPersistentDirectoryStore] jars (D:\Users\SouravB\Downloads\base-v2\gradle\cache\caches\jars-3) has last been fully cleaned up 7 hours ago
2020-10-15T19:08:29.292-0400 [DEBUG] [org.gradle.cache.internal.LockOnDemandCrossProcessCacheAccess] Releasing file lock for file content cache (D:\Users\SouravB\Downloads\base-v2\gradle\cache\caches\6.0.1\fileContent)
2020-10-15T19:08:29.292-0400 [DEBUG] [org.gradle.cache.internal.DefaultFileLockManager] Releasing lock on file content cache (D:\Users\SouravB\Downloads\base-v2\gradle\cache\caches\6.0.1\fileContent).
2020-10-15T19:08:29.293-0400 [DEBUG] [org.gradle.cache.internal.DefaultFileLockManager] Releasing lock on cache directory workerMain (D:\Users\SouravB\Downloads\base-v2\gradle\cache\caches\6.0.1\workerMain).
2020-10-15T19:08:29.294-0400 [DEBUG] [org.gradle.cache.internal.LockOnDemandCrossProcessCacheAccess] Releasing file lock for file hash cache (D:\Users\SouravB\Downloads\base-v2\gradle\cache\caches\6.0.1\fileHashes)
2020-10-15T19:08:29.294-0400 [DEBUG] [org.gradle.cache.internal.btree.BTreePersistentIndexedCache] Closing cache fileHashes.bin (D:\Users\SouravB\Downloads\base-v2\gradle\cache\caches\6.0.1\fileHashes\fileHashes.bin)
2020-10-15T19:08:29.294-0400 [DEBUG] [org.gradle.cache.internal.btree.BTreePersistentIndexedCache] Closing cache resourceHashesCache.bin (D:\Users\SouravB\Downloads\base-v2\gradle\cache\caches\6.0.1\fileHashes\resourceHashesCache.bin)
2020-10-15T19:08:29.295-0400 [DEBUG] [org.gradle.cache.internal.DefaultFileLockManager] Releasing lock on file hash cache (D:\Users\SouravB\Downloads\base-v2\gradle\cache\caches\6.0.1\fileHashes).
2020-10-15T19:08:29.295-0400 [DEBUG] [org.gradle.cache.internal.DefaultPersistentDirectoryStore] artifact cache (D:\Users\SouravB\Downloads\base-v2\gradle\cache\caches\modules-2) has last been fully cleaned up 7 hours ago
2020-10-15T19:08:29.295-0400 [DEBUG] [org.gradle.cache.internal.DefaultCacheAccess] Cache artifact cache (D:\Users\SouravB\Downloads\base-v2\gradle\cache\caches\modules-2) was closed 0 times.
2020-10-15T19:08:29.296-0400 [DEBUG] [org.gradle.cache.internal.DefaultPersistentDirectoryStore] Artifact transforms cache (D:\Users\SouravB\Downloads\base-v2\gradle\cache\caches\transforms-2) has last been fully cleaned up 7 hours ago
2020-10-15T19:08:29.296-0400 [DEBUG] [org.gradle.cache.internal.DefaultCacheAccess] Cache Artifact transforms cache (D:\Users\SouravB\Downloads\base-v2\gradle\cache\caches\transforms-2) was closed 0 times.
2020-10-15T19:08:29.297-0400 [DEBUG] [org.gradle.cache.internal.LockOnDemandCrossProcessCacheAccess] Releasing file lock for journal cache (D:\Users\SouravB\Downloads\base-v2\gradle\cache\caches\journal-1)
2020-10-15T19:08:29.297-0400 [DEBUG] [org.gradle.cache.internal.btree.BTreePersistentIndexedCache] Closing cache file-access.bin (D:\Users\SouravB\Downloads\base-v2\gradle\cache\caches\journal-1\file-access.bin)
2020-10-15T19:08:29.297-0400 [DEBUG] [org.gradle.cache.internal.DefaultFileLockManager] Releasing lock on journal cache (D:\Users\SouravB\Downloads\base-v2\gradle\cache\caches\journal-1).
2020-10-15T19:08:29.298-0400 [DEBUG] [org.gradle.cache.internal.DefaultCacheAccess] Cache Generated Gradle JARs cache (D:\Users\SouravB\Downloads\base-v2\gradle\cache\caches\6.0.1\generated-gradle-jars) was closed 0 times.
2020-10-15T19:08:29.300-0400 [DEBUG] [org.gradle.cache.internal.LockOnDemandCrossProcessCacheAccess] Releasing file lock for execution history cache (D:\Users\SouravB\Downloads\base-v2\gradle\cache\caches\6.0.1\executionHistory)
2020-10-15T19:08:29.300-0400 [DEBUG] [org.gradle.cache.internal.DefaultFileLockManager] Releasing lock on execution history cache (D:\Users\SouravB\Downloads\base-v2\gradle\cache\caches\6.0.1\executionHistory).
2020-10-15T19:08:29.302-0400 [DEBUG] [org.gradle.launcher.daemon.registry.PersistentDaemonRegistry] Removing daemon address: [bb03c176-c0eb-4245-bd87-a2ab1824755b port:51121, addresses:[/127.0.0.1, /0:0:0:0:0:0:0:1]]
Daemon vm is shutting down... The daemon has exited normally or was terminated in response to a user interrupt.
2020-10-15T19:08:29.310-0400 [DEBUG] [org.gradle.cache.internal.DefaultFileLockManager] Waiting to acquire exclusive lock on daemon addresses registry.
2020-10-15T19:08:29.310-0400 [DEBUG] [org.gradle.cache.internal.DefaultFileLockManager] Lock acquired on daemon addresses registry.
2020-10-15T19:08:29.311-0400 [DEBUG] [org.gradle.cache.internal.DefaultFileLockManager] Releasing lock on daemon addresses registry.
